#Exported from RayStation 6.99.0.24
#Time of export 02/20/2019 14:04:00
#Machine Name: GTR4-PBS
#Commission status: Commissioned
#Commission time: 06/01/2018 18:30:59
#Measured curves
#Field collimation: Snout
Origin of data [Measured/Computed]:; Measured
Machine/Treatment room:; GTR4-PBS
Snout name:; s1
Radiation type:; Proton
Curve type [Depth/X/Y/AbsoluteDosimetry]:; X
Medium:; Air
Single spot [Yes/No]:; Yes
Isocenter to snout distance [mm]:; 430
Air profile depth [mm]:; 0
Nominal beam energy [MeV]:; 100
Measured fluence curve (X pos [mm] Y pos [mm] Fluence [a.u.]):;
-24.5; 0.0; 0.00148588410104012
-24; 0.0; 0.00148588410104012
-23.5; 0.0; 0
-23; 0.0; 0
-22.5; 0.0; 0
-22; 0.0; 0.00148588410104012
-21.5; 0.0; 0.00148588410104012
-21; 0.0; 0.00148588410104012
-20.5; 0.0; 0.00148588410104012
-20; 0.0; 0.00148588410104012
-19.5; 0.0; 0.00148588410104012
-19; 0.0; 0.00148588410104012
-18.5; 0.0; 0.00148588410104012
-18; 0.0; 0.00297176820208024
-17.5; 0.0; 0.00297176820208024
-17; 0.0; 0.00445765230312036
-16.5; 0.0; 0.00742942050520059
-16; 0.0; 0.011887072808321
-15.5; 0.0; 0.0148588410104012
-15; 0.0; 0.0193164933135215
-14.5; 0.0; 0.0267459138187221
-14; 0.0; 0.037147102526003
-13.5; 0.0; 0.0445765230312036
-13; 0.0; 0.0594353640416048
-12.5; 0.0; 0.0742942050520059
-12; 0.0; 0.0906389301634472
-11.5; 0.0; 0.108469539375929
-11; 0.0; 0.132243684992571
-10.5; 0.0; 0.158989598811293
-10; 0.0; 0.190193164933135
-9.5; 0.0; 0.227340267459138
-9; 0.0; 0.265973254086181
-8.5; 0.0; 0.309063893016345
-8; 0.0; 0.356612184249629
-7.5; 0.0; 0.408618127786033
-7; 0.0; 0.462109955423477
-6.5; 0.0; 0.517087667161961
-6; 0.0; 0.576523031203566
-5.5; 0.0; 0.63001485884101
-5; 0.0; 0.686478454680535
-4.5; 0.0; 0.738484398216939
-4; 0.0; 0.787518573551263
-3.5; 0.0; 0.830609212481427
-3; 0.0; 0.87221396731055
-2.5; 0.0; 0.909361069836553
-2; 0.0; 0.939078751857355
-1.5; 0.0; 0.965824665676077
-1; 0.0; 0.983655274888559
-0.5; 0.0; 0.99554234769688
0; 0.0; 1
0.5; 0.0; 0.992570579494799
1; 0.0; 0.979197622585438
1.5; 0.0; 0.958395245170877
2; 0.0; 0.930163447251114
2.5; 0.0; 0.897473997028232
3; 0.0; 0.860326894502229
3.5; 0.0; 0.815750371471025
4; 0.0; 0.768202080237742
4.5; 0.0; 0.719167904903418
5; 0.0; 0.667161961367013
5.5; 0.0; 0.613670133729569
6; 0.0; 0.558692421991085
6.5; 0.0; 0.506686478454681
7; 0.0; 0.459138187221397
7.5; 0.0; 0.408618127786033
8; 0.0; 0.365527488855869
8.5; 0.0; 0.323922734026746
9; 0.0; 0.282317979197623
9.5; 0.0; 0.240713224368499
10; 0.0; 0.210995542347697
10.5; 0.0; 0.178306092124814
11; 0.0; 0.150074294205052
11.5; 0.0; 0.12630014858841
12; 0.0; 0.104011887072808
12.5; 0.0; 0.0861812778603269
13; 0.0; 0.0683506686478455
13.5; 0.0; 0.0564635958395245
14; 0.0; 0.0445765230312036
14.5; 0.0; 0.037147102526003
15; 0.0; 0.0267459138187221
15.5; 0.0; 0.0237741456166419
16; 0.0; 0.0163447251114413
16.5; 0.0; 0.0133729569093611
17; 0.0; 0.0104011887072808
17.5; 0.0; 0.00742942050520059
18; 0.0; 0.00594353640416048
18.5; 0.0; 0.00445765230312036
19; 0.0; 0.00297176820208024
19.5; 0.0; 0.00297176820208024
20; 0.0; 0.00148588410104012
End:;
Origin of data [Measured/Computed]:; Measured
Machine/Treatment room:; GTR4-PBS
Snout name:; s1
Radiation type:; Proton
Curve type [Depth/X/Y/AbsoluteDosimetry]:; Y
Medium:; Air
Single spot [Yes/No]:; Yes
Isocenter to snout distance [mm]:; 430
Air profile depth [mm]:; 0
Nominal beam energy [MeV]:; 100
Measured fluence curve (X pos [mm] Y pos [mm] Fluence [a.u.]):;
0.0; -25; 0.00148588410104012
0.0; -24.5; 0.00148588410104012
0.0; -24; 0.00148588410104012
0.0; -23.5; 0.00148588410104012
0.0; -23; 0.00148588410104012
0.0; -22.5; 0.00148588410104012
0.0; -22; 0.00297176820208024
0.0; -21.5; 0.00297176820208024
0.0; -21; 0.00297176820208024
0.0; -20.5; 0.00297176820208024
0.0; -20; 0.00445765230312036
0.0; -19.5; 0.00445765230312036
0.0; -19; 0.00742942050520059
0.0; -18.5; 0.00891530460624071
0.0; -18; 0.0104011887072808
0.0; -17.5; 0.011887072808321
0.0; -17; 0.0133729569093611
0.0; -16.5; 0.0148588410104012
0.0; -16; 0.0193164933135215
0.0; -15.5; 0.0237741456166419
0.0; -15; 0.0282317979197623
0.0; -14.5; 0.0356612184249629
0.0; -14; 0.0445765230312036
0.0; -13.5; 0.0534918276374443
0.0; -13; 0.0653789004457652
0.0; -12.5; 0.0817236255572065
0.0; -12; 0.0965824665676077
0.0; -11.5; 0.112927191679049
0.0; -11; 0.133729569093611
0.0; -10.5; 0.158989598811293
0.0; -10; 0.187221396731055
0.0; -9.5; 0.219910846953938
0.0; -9; 0.25408618127786
0.0; -8.5; 0.292719167904903
0.0; -8; 0.335809806835067
0.0; -7.5; 0.381872213967311
0.0; -7; 0.432392273402675
0.0; -6.5; 0.487369985141159
0.0; -6; 0.543833580980683
0.0; -5.5; 0.597325408618128
0.0; -5; 0.650817236255572
0.0; -4.5; 0.702823179791976
0.0; -4; 0.75482912332838
0.0; -3.5; 0.799405646359584
0.0; -3; 0.845468053491828
0.0; -2.5; 0.887072808320951
0.0; -2; 0.922734026745914
0.0; -1.5; 0.952451708766716
0.0; -1; 0.977711738484398
0.0; -0.5; 0.992570579494799
0.0; 0; 1
0.0; 0.5; 0.99851411589896
0.0; 1; 0.988112927191679
0.0; 1.5; 0.970282317979198
0.0; 2; 0.945022288261516
0.0; 2.5; 0.912332838038633
0.0; 3; 0.87369985141159
0.0; 3.5; 0.832095096582467
0.0; 4; 0.787518573551263
0.0; 4.5; 0.738484398216939
0.0; 5; 0.687964338781575
0.0; 5.5; 0.632986627043091
0.0; 6; 0.579494799405646
0.0; 6.5; 0.524517087667162
0.0; 7; 0.471025260029718
0.0; 7.5; 0.420505200594354
0.0; 8; 0.37147102526003
0.0; 8.5; 0.325408618127786
0.0; 9; 0.283803863298663
0.0; 9.5; 0.24517087667162
0.0; 10; 0.209509658246657
0.0; 10.5; 0.178306092124814
0.0; 11; 0.148588410104012
0.0; 11.5; 0.12481426448737
0.0; 12; 0.102526002971768
0.0; 12.5; 0.0832095096582467
0.0; 13; 0.0683506686478455
0.0; 13.5; 0.0564635958395245
0.0; 14; 0.0475482912332838
0.0; 14.5; 0.0386329866270431
0.0; 15; 0.0312035661218425
0.0; 15.5; 0.0267459138187221
0.0; 16; 0.0222882615156018
0.0; 16.5; 0.0163447251114413
0.0; 17; 0.0133729569093611
0.0; 17.5; 0.011887072808321
0.0; 18; 0.00891530460624071
0.0; 18.5; 0.00594353640416048
0.0; 19; 0.00594353640416048
0.0; 19.5; 0.00445765230312036
0.0; 20; 0.00445765230312036
0.0; 20.5; 0.00445765230312036
0.0; 21; 0.00297176820208024
0.0; 21.5; 0.00297176820208024
0.0; 22; 0.00148588410104012
0.0; 22.5; 0.00148588410104012
0.0; 23; 0.00148588410104012
0.0; 23.5; 0.00148588410104012
0.0; 24; 0.00148588410104012
0.0; 24.5; 0.00148588410104012
End:;
Origin of data [Measured/Computed]:; Measured
Machine/Treatment room:; GTR4-PBS
Snout name:; s1
Radiation type:; Proton
Curve type [Depth/X/Y/AbsoluteDosimetry]:; X
Medium:; Air
Single spot [Yes/No]:; Yes
Isocenter to snout distance [mm]:; 430
Air profile depth [mm]:; 100
Nominal beam energy [MeV]:; 100
Measured fluence curve (X pos [mm] Y pos [mm] Fluence [a.u.]):;
-22.5; 0.0; 0.00137741046831956
-22; 0.0; 0.00137741046831956
-21.5; 0.0; 0.00137741046831956
-21; 0.0; 0
-20.5; 0.0; 0.00137741046831956
-20; 0.0; 0.00137741046831956
-19.5; 0.0; 0.00137741046831956
-19; 0.0; 0
-18.5; 0.0; 0
-18; 0.0; 0
-17.5; 0.0; 0
-17; 0.0; 0.00137741046831956
-16.5; 0.0; 0.00137741046831956
-16; 0.0; 0.00413223140495868
-15.5; 0.0; 0.0068870523415978
-15; 0.0; 0.0110192837465565
-14.5; 0.0; 0.0137741046831956
-14; 0.0; 0.0179063360881543
-13.5; 0.0; 0.0234159779614325
-13; 0.0; 0.0316804407713499
-12.5; 0.0; 0.0399449035812672
-12; 0.0; 0.0523415977961433
-11.5; 0.0; 0.0674931129476584
-11; 0.0; 0.0867768595041322
-10.5; 0.0; 0.108815426997245
-10; 0.0; 0.133608815426997
-9.5; 0.0; 0.165289256198347
-9; 0.0; 0.202479338842975
-8.5; 0.0; 0.242424242424242
-8; 0.0; 0.287878787878788
-7.5; 0.0; 0.337465564738292
-7; 0.0; 0.389807162534435
-6.5; 0.0; 0.449035812672176
-6; 0.0; 0.508264462809917
-5.5; 0.0; 0.567493112947658
-5; 0.0; 0.628099173553719
-4.5; 0.0; 0.68732782369146
-4; 0.0; 0.746556473829201
-3.5; 0.0; 0.800275482093664
-3; 0.0; 0.849862258953168
-2.5; 0.0; 0.895316804407714
-2; 0.0; 0.933884297520661
-1.5; 0.0; 0.961432506887052
-1; 0.0; 0.983471074380165
-0.5; 0.0; 0.997245179063361
0; 0.0; 1
0.5; 0.0; 0.994490358126722
1; 0.0; 0.977961432506887
1.5; 0.0; 0.953168044077135
2; 0.0; 0.925619834710744
2.5; 0.0; 0.887052341597796
3; 0.0; 0.845730027548209
3.5; 0.0; 0.798898071625344
4; 0.0; 0.746556473829201
4.5; 0.0; 0.690082644628099
5; 0.0; 0.630853994490358
5.5; 0.0; 0.571625344352617
6; 0.0; 0.512396694214876
6.5; 0.0; 0.455922865013774
7; 0.0; 0.402203856749311
7.5; 0.0; 0.351239669421488
8; 0.0; 0.304407713498623
8.5; 0.0; 0.263085399449036
9; 0.0; 0.221763085399449
9.5; 0.0; 0.184573002754821
10; 0.0; 0.152892561983471
10.5; 0.0; 0.12534435261708
11; 0.0; 0.100550964187328
11.5; 0.0; 0.081267217630854
12; 0.0; 0.0661157024793388
12.5; 0.0; 0.0523415977961433
13; 0.0; 0.0399449035812672
13.5; 0.0; 0.0316804407713499
14; 0.0; 0.0247933884297521
14.5; 0.0; 0.0179063360881543
15; 0.0; 0.0137741046831956
15.5; 0.0; 0.0110192837465565
16; 0.0; 0.0068870523415978
16.5; 0.0; 0.00550964187327824
17; 0.0; 0.00413223140495868
17.5; 0.0; 0.00275482093663912
18; 0.0; 0.00275482093663912
18.5; 0.0; 0.00137741046831956
End:;
Origin of data [Measured/Computed]:; Measured
Machine/Treatment room:; GTR4-PBS
Snout name:; s1
Radiation type:; Proton
Curve type [Depth/X/Y/AbsoluteDosimetry]:; Y
Medium:; Air
Single spot [Yes/No]:; Yes
Isocenter to snout distance [mm]:; 430
Air profile depth [mm]:; 100
Nominal beam energy [MeV]:; 100
Measured fluence curve (X pos [mm] Y pos [mm] Fluence [a.u.]):;
0.0; -27; 0.00275482093663912
0.0; -26.5; 0.00413223140495868
0.0; -26; 0.00275482093663912
0.0; -25.5; 0.00275482093663912
0.0; -25; 0.00275482093663912
0.0; -24.5; 0.00275482093663912
0.0; -24; 0.00275482093663912
0.0; -23.5; 0.00275482093663912
0.0; -23; 0.00550964187327824
0.0; -22.5; 0.00550964187327824
0.0; -22; 0.00550964187327824
0.0; -21.5; 0.0068870523415978
0.0; -21; 0.0068870523415978
0.0; -20.5; 0.0068870523415978
0.0; -20; 0.00964187327823691
0.0; -19.5; 0.00964187327823691
0.0; -19; 0.0110192837465565
0.0; -18.5; 0.012396694214876
0.0; -18; 0.0151515151515152
0.0; -17.5; 0.0179063360881543
0.0; -17; 0.0220385674931129
0.0; -16.5; 0.0261707988980716
0.0; -16; 0.0330578512396694
0.0; -15.5; 0.0399449035812672
0.0; -15; 0.0523415977961433
0.0; -14.5; 0.0633608815426997
0.0; -14; 0.0757575757575758
0.0; -13.5; 0.0922865013774105
0.0; -13; 0.112947658402204
0.0; -12.5; 0.136363636363636
0.0; -12; 0.162534435261708
0.0; -11.5; 0.194214876033058
0.0; -11; 0.230027548209366
0.0; -10.5; 0.271349862258953
0.0; -10; 0.31404958677686
0.0; -9.5; 0.363636363636364
0.0; -9; 0.414600550964187
0.0; -8.5; 0.471074380165289
0.0; -8; 0.528925619834711
0.0; -7.5; 0.586776859504132
0.0; -7; 0.647382920110193
0.0; -6.5; 0.703856749311295
0.0; -6; 0.758953168044077
0.0; -5.5; 0.81129476584022
0.0; -5; 0.856749311294766
0.0; -4.5; 0.898071625344353
0.0; -4; 0.933884297520661
0.0; -3.5; 0.961432506887052
0.0; -3; 0.980716253443526
0.0; -2.5; 0.994490358126722
0.0; -2; 1
0.0; -1.5; 0.995867768595041
0.0; -1; 0.982093663911846
0.0; -0.5; 0.960055096418733
0.0; 0; 0.929752066115702
0.0; 0.5; 0.889807162534435
0.0; 1; 0.841597796143251
0.0; 1.5; 0.793388429752066
0.0; 2; 0.743801652892562
0.0; 2.5; 0.68870523415978
0.0; 3; 0.632231404958678
0.0; 3.5; 0.575757575757576
0.0; 4; 0.516528925619835
0.0; 4.5; 0.455922865013774
0.0; 5; 0.402203856749311
0.0; 5.5; 0.349862258953168
0.0; 6; 0.301652892561983
0.0; 6.5; 0.256198347107438
0.0; 7; 0.216253443526171
0.0; 7.5; 0.183195592286501
0.0; 8; 0.152892561983471
0.0; 8.5; 0.12534435261708
0.0; 9; 0.104683195592287
0.0; 9.5; 0.0867768595041322
0.0; 10; 0.0716253443526171
0.0; 10.5; 0.0578512396694215
0.0; 11; 0.046831955922865
0.0; 11.5; 0.0371900826446281
0.0; 12; 0.0289256198347107
0.0; 12.5; 0.0234159779614325
0.0; 13; 0.0179063360881543
0.0; 13.5; 0.0151515151515152
0.0; 14; 0.012396694214876
0.0; 14.5; 0.0110192837465565
0.0; 15; 0.00964187327823691
0.0; 15.5; 0.00826446280991736
0.0; 16; 0.00550964187327824
0.0; 16.5; 0.00413223140495868
0.0; 17; 0.00413223140495868
0.0; 17.5; 0.00413223140495868
0.0; 18; 0.00275482093663912
0.0; 18.5; 0.00275482093663912
0.0; 19; 0.00137741046831956
0.0; 19.5; 0.00137741046831956
0.0; 20; 0.00137741046831956
0.0; 20.5; 0.00137741046831956
End:;
Origin of data [Measured/Computed]:; Measured
Machine/Treatment room:; GTR4-PBS
Snout name:; s1
Radiation type:; Proton
Curve type [Depth/X/Y/AbsoluteDosimetry]:; X
Medium:; Air
Single spot [Yes/No]:; Yes
Isocenter to snout distance [mm]:; 430
Air profile depth [mm]:; 200
Nominal beam energy [MeV]:; 100
Measured fluence curve (X pos [mm] Y pos [mm] Fluence [a.u.]):;
-27; 0.0; 0.00128865979381443
-26.5; 0.0; 0.00128865979381443
-26; 0.0; 0
-25.5; 0.0; 0
-25; 0.0; 0
-24.5; 0.0; 0
-24; 0.0; 0
-23.5; 0.0; 0
-23; 0.0; 0
-22.5; 0.0; 0
-22; 0.0; 0.00128865979381443
-21.5; 0.0; 0.00128865979381443
-21; 0.0; 0
-20.5; 0.0; 0
-20; 0.0; 0
-19.5; 0.0; 0
-19; 0.0; 0
-18.5; 0.0; 0
-18; 0.0; 0
-17.5; 0.0; 0
-17; 0.0; 0
-16.5; 0.0; 0.00128865979381443
-16; 0.0; 0.00128865979381443
-15.5; 0.0; 0.00257731958762887
-15; 0.0; 0.0038659793814433
-14.5; 0.0; 0.00515463917525773
-14; 0.0; 0.00644329896907216
-13.5; 0.0; 0.0103092783505155
-13; 0.0; 0.0141752577319588
-12.5; 0.0; 0.0219072164948454
-12; 0.0; 0.0283505154639175
-11.5; 0.0; 0.0399484536082474
-11; 0.0; 0.0528350515463918
-10.5; 0.0; 0.0682989690721649
-10; 0.0; 0.0902061855670103
-9.5; 0.0; 0.11340206185567
-9; 0.0; 0.144329896907216
-8.5; 0.0; 0.177835051546392
-8; 0.0; 0.21520618556701
-7.5; 0.0; 0.259020618556701
-7; 0.0; 0.30798969072165
-6.5; 0.0; 0.364690721649485
-6; 0.0; 0.423969072164948
-5.5; 0.0; 0.485824742268041
-5; 0.0; 0.552835051546392
-4.5; 0.0; 0.619845360824742
-4; 0.0; 0.686855670103093
-3.5; 0.0; 0.753865979381443
-3; 0.0; 0.815721649484536
-2.5; 0.0; 0.871134020618557
-2; 0.0; 0.918814432989691
-1.5; 0.0; 0.954896907216495
-1; 0.0; 0.978092783505155
-0.5; 0.0; 0.994845360824742
0; 0.0; 1
0.5; 0.0; 0.994845360824742
1; 0.0; 0.97680412371134
1.5; 0.0; 0.947164948453608
2; 0.0; 0.913659793814433
2.5; 0.0; 0.868556701030928
3; 0.0; 0.814432989690722
3.5; 0.0; 0.755154639175258
4; 0.0; 0.694587628865979
4.5; 0.0; 0.627577319587629
5; 0.0; 0.560567010309278
5.5; 0.0; 0.497422680412371
6; 0.0; 0.43298969072165
6.5; 0.0; 0.372422680412371
7; 0.0; 0.317010309278351
7.5; 0.0; 0.268041237113402
8; 0.0; 0.221649484536082
8.5; 0.0; 0.184278350515464
9; 0.0; 0.149484536082474
9.5; 0.0; 0.119845360824742
10; 0.0; 0.095360824742268
10.5; 0.0; 0.0734536082474227
11; 0.0; 0.0541237113402062
11.5; 0.0; 0.0425257731958763
12; 0.0; 0.0335051546391753
12.5; 0.0; 0.0244845360824742
13; 0.0; 0.0180412371134021
13.5; 0.0; 0.0141752577319588
14; 0.0; 0.0103092783505155
14.5; 0.0; 0.00644329896907216
15; 0.0; 0.00515463917525773
15.5; 0.0; 0.00257731958762887
16; 0.0; 0.00257731958762887
16.5; 0.0; 0.00128865979381443
17; 0.0; 0.00128865979381443
End:;
Origin of data [Measured/Computed]:; Measured
Machine/Treatment room:; GTR4-PBS
Snout name:; s1
Radiation type:; Proton
Curve type [Depth/X/Y/AbsoluteDosimetry]:; Y
Medium:; Air
Single spot [Yes/No]:; Yes
Isocenter to snout distance [mm]:; 430
Air profile depth [mm]:; 200
Nominal beam energy [MeV]:; 100
Measured fluence curve (X pos [mm] Y pos [mm] Fluence [a.u.]):;
0.0; -27; 0.00257731958762887
0.0; -26.5; 0.00257731958762887
0.0; -26; 0.00128865979381443
0.0; -25.5; 0.00128865979381443
0.0; -25; 0.00257731958762887
0.0; -24.5; 0.00257731958762887
0.0; -24; 0.00257731958762887
0.0; -23.5; 0.00257731958762887
0.0; -23; 0.0038659793814433
0.0; -22.5; 0.0038659793814433
0.0; -22; 0.0038659793814433
0.0; -21.5; 0.0038659793814433
0.0; -21; 0.0038659793814433
0.0; -20.5; 0.0038659793814433
0.0; -20; 0.00515463917525773
0.0; -19.5; 0.0038659793814433
0.0; -19; 0.00515463917525773
0.0; -18.5; 0.0077319587628866
0.0; -18; 0.00902061855670103
0.0; -17.5; 0.0103092783505155
0.0; -17; 0.0115979381443299
0.0; -16.5; 0.0141752577319588
0.0; -16; 0.0167525773195876
0.0; -15.5; 0.0219072164948454
0.0; -15; 0.0283505154639175
0.0; -14.5; 0.0347938144329897
0.0; -14; 0.0425257731958763
0.0; -13.5; 0.0515463917525773
0.0; -13; 0.0670103092783505
0.0; -12.5; 0.0837628865979381
0.0; -12; 0.105670103092784
0.0; -11.5; 0.131443298969072
0.0; -11; 0.162371134020619
0.0; -10.5; 0.197164948453608
0.0; -10; 0.235824742268041
0.0; -9.5; 0.282216494845361
0.0; -9; 0.333762886597938
0.0; -8.5; 0.390463917525773
0.0; -8; 0.449742268041237
0.0; -7.5; 0.51159793814433
0.0; -7; 0.573453608247423
0.0; -6.5; 0.63659793814433
0.0; -6; 0.697164948453608
0.0; -5.5; 0.757731958762887
0.0; -5; 0.811855670103093
0.0; -4.5; 0.86340206185567
0.0; -4; 0.908505154639175
0.0; -3.5; 0.944587628865979
0.0; -3; 0.971649484536082
0.0; -2.5; 0.990979381443299
0.0; -2; 1
0.0; -1.5; 0.998711340206186
0.0; -1; 0.985824742268041
0.0; -0.5; 0.960051546391753
0.0; 0; 0.925257731958763
0.0; 0.5; 0.882731958762887
0.0; 1; 0.829896907216495
0.0; 1.5; 0.774484536082474
0.0; 2; 0.719072164948454
0.0; 2.5; 0.658505154639175
0.0; 3; 0.592783505154639
0.0; 3.5; 0.527061855670103
0.0; 4; 0.462628865979381
0.0; 4.5; 0.400773195876289
0.0; 5; 0.342783505154639
0.0; 5.5; 0.289948453608247
0.0; 6; 0.243556701030928
0.0; 6.5; 0.201030927835052
0.0; 7; 0.164948453608247
0.0; 7.5; 0.134020618556701
0.0; 8; 0.108247422680412
0.0; 8.5; 0.0837628865979381
0.0; 9; 0.0670103092783505
0.0; 9.5; 0.0515463917525773
0.0; 10; 0.0399484536082474
0.0; 10.5; 0.0322164948453608
0.0; 11; 0.0257731958762887
0.0; 11.5; 0.0219072164948454
0.0; 12; 0.0167525773195876
0.0; 12.5; 0.0128865979381443
0.0; 13; 0.0103092783505155
0.0; 13.5; 0.00902061855670103
0.0; 14; 0.0077319587628866
0.0; 14.5; 0.00515463917525773
0.0; 15; 0.00515463917525773
0.0; 15.5; 0.0038659793814433
0.0; 16; 0.0038659793814433
0.0; 16.5; 0.00257731958762887
0.0; 17; 0.00257731958762887
0.0; 17.5; 0.00257731958762887
0.0; 18; 0.00128865979381443
0.0; 18.5; 0.00128865979381443
0.0; 19; 0.00128865979381443
0.0; 19.5; 0.00128865979381443
0.0; 20; 0.00128865979381443
End:;
Origin of data [Measured/Computed]:; Measured
Machine/Treatment room:; GTR4-PBS
Snout name:; s1
Radiation type:; Proton
Curve type [Depth/X/Y/AbsoluteDosimetry]:; X
Medium:; Air
Single spot [Yes/No]:; Yes
Isocenter to snout distance [mm]:; 430
Air profile depth [mm]:; -100
Nominal beam energy [MeV]:; 100
Measured fluence curve (X pos [mm] Y pos [mm] Fluence [a.u.]):;
-22; 0.0; 0.00131578947368421
-21.5; 0.0; 0.00131578947368421
-21; 0.0; 0.00131578947368421
-20.5; 0.0; 0.00263157894736842
-20; 0.0; 0.00394736842105263
-19.5; 0.0; 0.00394736842105263
-19; 0.0; 0.00526315789473684
-18.5; 0.0; 0.00657894736842105
-18; 0.0; 0.00921052631578947
-17.5; 0.0; 0.0118421052631579
-17; 0.0; 0.0157894736842105
-16.5; 0.0; 0.0210526315789474
-16; 0.0; 0.0263157894736842
-15.5; 0.0; 0.0342105263157895
-15; 0.0; 0.0421052631578947
-14.5; 0.0; 0.0526315789473684
-14; 0.0; 0.0644736842105263
-13.5; 0.0; 0.0789473684210526
-13; 0.0; 0.0973684210526316
-12.5; 0.0; 0.118421052631579
-12; 0.0; 0.140789473684211
-11.5; 0.0; 0.164473684210526
-11; 0.0; 0.196052631578947
-10.5; 0.0; 0.226315789473684
-10; 0.0; 0.261842105263158
-9.5; 0.0; 0.302631578947368
-9; 0.0; 0.346052631578947
-8.5; 0.0; 0.389473684210526
-8; 0.0; 0.438157894736842
-7.5; 0.0; 0.488157894736842
-7; 0.0; 0.539473684210526
-6.5; 0.0; 0.590789473684211
-6; 0.0; 0.640789473684211
-5.5; 0.0; 0.686842105263158
-5; 0.0; 0.734210526315789
-4.5; 0.0; 0.777631578947368
-4; 0.0; 0.817105263157895
-3.5; 0.0; 0.853947368421053
-3; 0.0; 0.892105263157895
-2.5; 0.0; 0.922368421052632
-2; 0.0; 0.948684210526316
-1.5; 0.0; 0.969736842105263
-1; 0.0; 0.985526315789474
-0.5; 0.0; 0.996052631578947
0; 0.0; 1
0.5; 0.0; 0.998684210526316
1; 0.0; 0.989473684210526
1.5; 0.0; 0.971052631578947
2; 0.0; 0.951315789473684
2.5; 0.0; 0.925
3; 0.0; 0.893421052631579
3.5; 0.0; 0.857894736842105
4; 0.0; 0.819736842105263
4.5; 0.0; 0.780263157894737
5; 0.0; 0.735526315789474
5.5; 0.0; 0.690789473684211
6; 0.0; 0.643421052631579
6.5; 0.0; 0.596052631578947
7; 0.0; 0.547368421052632
7.5; 0.0; 0.5
8; 0.0; 0.456578947368421
8.5; 0.0; 0.415789473684211
9; 0.0; 0.372368421052632
9.5; 0.0; 0.332894736842105
10; 0.0; 0.293421052631579
10.5; 0.0; 0.256578947368421
11; 0.0; 0.223684210526316
11.5; 0.0; 0.194736842105263
12; 0.0; 0.169736842105263
12.5; 0.0; 0.146052631578947
13; 0.0; 0.122368421052632
13.5; 0.0; 0.103947368421053
14; 0.0; 0.0868421052631579
14.5; 0.0; 0.0723684210526316
15; 0.0; 0.0605263157894737
15.5; 0.0; 0.0486842105263158
16; 0.0; 0.0394736842105263
16.5; 0.0; 0.0315789473684211
17; 0.0; 0.0276315789473684
17.5; 0.0; 0.0223684210526316
18; 0.0; 0.0171052631578947
18.5; 0.0; 0.0144736842105263
19; 0.0; 0.0105263157894737
19.5; 0.0; 0.00657894736842105
20; 0.0; 0.00394736842105263
20.5; 0.0; 0.00263157894736842
21; 0.0; 0.00394736842105263
21.5; 0.0; 0.00263157894736842
22; 0.0; 0.00131578947368421
22.5; 0.0; 0.00131578947368421
End:;
Origin of data [Measured/Computed]:; Measured
Machine/Treatment room:; GTR4-PBS
Snout name:; s1
Radiation type:; Proton
Curve type [Depth/X/Y/AbsoluteDosimetry]:; Y
Medium:; Air
Single spot [Yes/No]:; Yes
Isocenter to snout distance [mm]:; 430
Air profile depth [mm]:; -100
Nominal beam energy [MeV]:; 100
Measured fluence curve (X pos [mm] Y pos [mm] Fluence [a.u.]):;
0.0; -27; 0.00263157894736842
0.0; -26.5; 0.00394736842105263
0.0; -26; 0.00394736842105263
0.0; -25.5; 0.00394736842105263
0.0; -25; 0.00394736842105263
0.0; -24.5; 0.00526315789473684
0.0; -24; 0.00526315789473684
0.0; -23.5; 0.00789473684210526
0.0; -23; 0.00921052631578947
0.0; -22.5; 0.0105263157894737
0.0; -22; 0.0118421052631579
0.0; -21.5; 0.0131578947368421
0.0; -21; 0.0144736842105263
0.0; -20.5; 0.0157894736842105
0.0; -20; 0.0184210526315789
0.0; -19.5; 0.0210526315789474
0.0; -19; 0.025
0.0; -18.5; 0.0315789473684211
0.0; -18; 0.0368421052631579
0.0; -17.5; 0.0447368421052632
0.0; -17; 0.0513157894736842
0.0; -16.5; 0.0618421052631579
0.0; -16; 0.0736842105263158
0.0; -15.5; 0.0894736842105263
0.0; -15; 0.106578947368421
0.0; -14.5; 0.126315789473684
0.0; -14; 0.146052631578947
0.0; -13.5; 0.173684210526316
0.0; -13; 0.201315789473684
0.0; -12.5; 0.231578947368421
0.0; -12; 0.265789473684211
0.0; -11.5; 0.302631578947368
0.0; -11; 0.343421052631579
0.0; -10.5; 0.385526315789474
0.0; -10; 0.430263157894737
0.0; -9.5; 0.477631578947368
0.0; -9; 0.526315789473684
0.0; -8.5; 0.576315789473684
0.0; -8; 0.627631578947368
0.0; -7.5; 0.677631578947368
0.0; -7; 0.726315789473684
0.0; -6.5; 0.772368421052632
0.0; -6; 0.815789473684211
0.0; -5.5; 0.856578947368421
0.0; -5; 0.892105263157895
0.0; -4.5; 0.921052631578947
0.0; -4; 0.946052631578947
0.0; -3.5; 0.967105263157895
0.0; -3; 0.982894736842105
0.0; -2.5; 0.994736842105263
0.0; -2; 1
0.0; -1.5; 0.994736842105263
0.0; -1; 0.982894736842105
0.0; -0.5; 0.964473684210526
0.0; 0; 0.943421052631579
0.0; 0.5; 0.911842105263158
0.0; 1; 0.873684210526316
0.0; 1.5; 0.835526315789474
0.0; 2; 0.793421052631579
0.0; 2.5; 0.747368421052632
0.0; 3; 0.701315789473684
0.0; 3.5; 0.653947368421053
0.0; 4; 0.602631578947368
0.0; 4.5; 0.551315789473684
0.0; 5; 0.502631578947368
0.0; 5.5; 0.451315789473684
0.0; 6; 0.405263157894737
0.0; 6.5; 0.361842105263158
0.0; 7; 0.321052631578947
0.0; 7.5; 0.281578947368421
0.0; 8; 0.247368421052632
0.0; 8.5; 0.213157894736842
0.0; 9; 0.182894736842105
0.0; 9.5; 0.157894736842105
0.0; 10; 0.135526315789474
0.0; 10.5; 0.115789473684211
0.0; 11; 0.0960526315789474
0.0; 11.5; 0.0815789473684211
0.0; 12; 0.0671052631578947
0.0; 12.5; 0.0565789473684211
0.0; 13; 0.0460526315789474
0.0; 13.5; 0.0381578947368421
0.0; 14; 0.0328947368421053
0.0; 14.5; 0.0263157894736842
0.0; 15; 0.0223684210526316
0.0; 15.5; 0.0171052631578947
0.0; 16; 0.0144736842105263
0.0; 16.5; 0.0118421052631579
0.0; 17; 0.0105263157894737
0.0; 17.5; 0.0105263157894737
0.0; 18; 0.00789473684210526
0.0; 18.5; 0.00526315789473684
0.0; 19; 0.00394736842105263
0.0; 19.5; 0.00263157894736842
0.0; 20; 0.00263157894736842
0.0; 20.5; 0.00263157894736842
0.0; 21; 0.00263157894736842
0.0; 21.5; 0.00263157894736842
0.0; 22; 0.00131578947368421
0.0; 22.5; 0.00131578947368421
End:;
Origin of data [Measured/Computed]:; Measured
Machine/Treatment room:; GTR4-PBS
Snout name:; s1
Radiation type:; Proton
Curve type [Depth/X/Y/AbsoluteDosimetry]:; X
Medium:; Air
Single spot [Yes/No]:; Yes
Isocenter to snout distance [mm]:; 430
Air profile depth [mm]:; -200
Nominal beam energy [MeV]:; 100
Measured fluence curve (X pos [mm] Y pos [mm] Fluence [a.u.]):;
-22.5; 0.0; 0.00154320987654321
-22; 0.0; 0.00308641975308642
-21.5; 0.0; 0.00308641975308642
-21; 0.0; 0.00462962962962963
-20.5; 0.0; 0.00617283950617284
-20; 0.0; 0.00771604938271605
-19.5; 0.0; 0.00925925925925926
-19; 0.0; 0.0123456790123457
-18.5; 0.0; 0.0154320987654321
-18; 0.0; 0.0169753086419753
-17.5; 0.0; 0.0231481481481481
-17; 0.0; 0.029320987654321
-16.5; 0.0; 0.037037037037037
-16; 0.0; 0.0432098765432099
-15.5; 0.0; 0.0540123456790123
-15; 0.0; 0.0679012345679012
-14.5; 0.0; 0.0833333333333333
-14; 0.0; 0.101851851851852
-13.5; 0.0; 0.12037037037037
-13; 0.0; 0.143518518518519
-12.5; 0.0; 0.166666666666667
-12; 0.0; 0.192901234567901
-11.5; 0.0; 0.222222222222222
-11; 0.0; 0.256172839506173
-10.5; 0.0; 0.290123456790123
-10; 0.0; 0.325617283950617
-9.5; 0.0; 0.365740740740741
-9; 0.0; 0.407407407407407
-8.5; 0.0; 0.452160493827161
-8; 0.0; 0.5
-7.5; 0.0; 0.54783950617284
-7; 0.0; 0.594135802469136
-6.5; 0.0; 0.641975308641975
-6; 0.0; 0.688271604938272
-5.5; 0.0; 0.734567901234568
-5; 0.0; 0.777777777777778
-4.5; 0.0; 0.817901234567901
-4; 0.0; 0.851851851851852
-3.5; 0.0; 0.887345679012346
-3; 0.0; 0.915123456790123
-2.5; 0.0; 0.941358024691358
-2; 0.0; 0.962962962962963
-1.5; 0.0; 0.979938271604938
-1; 0.0; 0.990740740740741
-0.5; 0.0; 0.996913580246914
0; 0.0; 1
0.5; 0.0; 0.996913580246914
1; 0.0; 0.990740740740741
1.5; 0.0; 0.976851851851852
2; 0.0; 0.958333333333333
2.5; 0.0; 0.936728395061728
3; 0.0; 0.907407407407407
3.5; 0.0; 0.878086419753086
4; 0.0; 0.844135802469136
4.5; 0.0; 0.808641975308642
5; 0.0; 0.771604938271605
5.5; 0.0; 0.731481481481482
6; 0.0; 0.689814814814815
6.5; 0.0; 0.648148148148148
7; 0.0; 0.604938271604938
7.5; 0.0; 0.558641975308642
8; 0.0; 0.516975308641975
8.5; 0.0; 0.475308641975309
9; 0.0; 0.436728395061728
9.5; 0.0; 0.401234567901235
10; 0.0; 0.365740740740741
10.5; 0.0; 0.33179012345679
11; 0.0; 0.296296296296296
11.5; 0.0; 0.260802469135802
12; 0.0; 0.229938271604938
12.5; 0.0; 0.200617283950617
13; 0.0; 0.174382716049383
13.5; 0.0; 0.152777777777778
14; 0.0; 0.131172839506173
14.5; 0.0; 0.111111111111111
15; 0.0; 0.0972222222222222
15.5; 0.0; 0.0833333333333333
16; 0.0; 0.0709876543209877
16.5; 0.0; 0.058641975308642
17; 0.0; 0.0493827160493827
17.5; 0.0; 0.0416666666666667
18; 0.0; 0.0339506172839506
18.5; 0.0; 0.0277777777777778
19; 0.0; 0.0216049382716049
19.5; 0.0; 0.0185185185185185
20; 0.0; 0.0154320987654321
20.5; 0.0; 0.0108024691358025
21; 0.0; 0.00771604938271605
21.5; 0.0; 0.00617283950617284
22; 0.0; 0.00462962962962963
22.5; 0.0; 0.00462962962962963
23; 0.0; 0.00462962962962963
23.5; 0.0; 0.00308641975308642
24; 0.0; 0.00154320987654321
End:;
Origin of data [Measured/Computed]:; Measured
Machine/Treatment room:; GTR4-PBS
Snout name:; s1
Radiation type:; Proton
Curve type [Depth/X/Y/AbsoluteDosimetry]:; Y
Medium:; Air
Single spot [Yes/No]:; Yes
Isocenter to snout distance [mm]:; 430
Air profile depth [mm]:; -200
Nominal beam energy [MeV]:; 100
Measured fluence curve (X pos [mm] Y pos [mm] Fluence [a.u.]):;
0.0; -25.5; 0.00462962962962963
0.0; -25; 0.00462962962962963
0.0; -24.5; 0.00462962962962963
0.0; -24; 0.00462962962962963
0.0; -23.5; 0.00462962962962963
0.0; -23; 0.00617283950617284
0.0; -22.5; 0.00771604938271605
0.0; -22; 0.0108024691358025
0.0; -21.5; 0.0123456790123457
0.0; -21; 0.0138888888888889
0.0; -20.5; 0.0154320987654321
0.0; -20; 0.0169753086419753
0.0; -19.5; 0.0200617283950617
0.0; -19; 0.0246913580246914
0.0; -18.5; 0.0277777777777778
0.0; -18; 0.0324074074074074
0.0; -17.5; 0.0385802469135802
0.0; -17; 0.0447530864197531
0.0; -16.5; 0.0540123456790123
0.0; -16; 0.0648148148148148
0.0; -15.5; 0.0771604938271605
0.0; -15; 0.0925925925925926
0.0; -14.5; 0.106481481481481
0.0; -14; 0.123456790123457
0.0; -13.5; 0.143518518518519
0.0; -13; 0.165123456790123
0.0; -12.5; 0.189814814814815
0.0; -12; 0.214506172839506
0.0; -11.5; 0.243827160493827
0.0; -11; 0.276234567901235
0.0; -10.5; 0.310185185185185
0.0; -10; 0.348765432098765
0.0; -9.5; 0.388888888888889
0.0; -9; 0.430555555555556
0.0; -8.5; 0.473765432098765
0.0; -8; 0.520061728395062
0.0; -7.5; 0.566358024691358
0.0; -7; 0.611111111111111
0.0; -6.5; 0.655864197530864
0.0; -6; 0.702160493827161
0.0; -5.5; 0.746913580246914
0.0; -5; 0.79320987654321
0.0; -4.5; 0.833333333333333
0.0; -4; 0.87037037037037
0.0; -3.5; 0.904320987654321
0.0; -3; 0.932098765432099
0.0; -2.5; 0.955246913580247
0.0; -2; 0.973765432098765
0.0; -1.5; 0.987654320987654
0.0; -1; 0.996913580246914
0.0; -0.5; 1
0.0; 0; 0.99537037037037
0.0; 0.5; 0.986111111111111
0.0; 1; 0.970679012345679
0.0; 1.5; 0.950617283950617
0.0; 2; 0.925925925925926
0.0; 2.5; 0.896604938271605
0.0; 3; 0.862654320987654
0.0; 3.5; 0.824074074074074
0.0; 4; 0.785493827160494
0.0; 4.5; 0.740740740740741
0.0; 5; 0.695987654320988
0.0; 5.5; 0.651234567901235
0.0; 6; 0.604938271604938
0.0; 6.5; 0.560185185185185
0.0; 7; 0.513888888888889
0.0; 7.5; 0.469135802469136
0.0; 8; 0.42283950617284
0.0; 8.5; 0.37962962962963
0.0; 9; 0.339506172839506
0.0; 9.5; 0.304012345679012
0.0; 10; 0.270061728395062
0.0; 10.5; 0.237654320987654
0.0; 11; 0.209876543209877
0.0; 11.5; 0.185185185185185
0.0; 12; 0.16358024691358
0.0; 12.5; 0.140432098765432
0.0; 13; 0.121913580246914
0.0; 13.5; 0.104938271604938
0.0; 14; 0.087962962962963
0.0; 14.5; 0.0740740740740741
0.0; 15; 0.0617283950617284
0.0; 15.5; 0.0524691358024691
0.0; 16; 0.0447530864197531
0.0; 16.5; 0.0385802469135802
0.0; 17; 0.0324074074074074
0.0; 17.5; 0.029320987654321
0.0; 18; 0.0246913580246914
0.0; 18.5; 0.0200617283950617
0.0; 19; 0.0169753086419753
0.0; 19.5; 0.0154320987654321
0.0; 20; 0.0123456790123457
0.0; 20.5; 0.0108024691358025
0.0; 21; 0.00617283950617284
0.0; 21.5; 0.00462962962962963
0.0; 22; 0.00308641975308642
0.0; 22.5; 0.00308641975308642
0.0; 23; 0.00154320987654321
0.0; 23.5; 0.00154320987654321
0.0; 24; 0.00154320987654321
End:;
Origin of data [Measured/Computed]:; Measured
Machine/Treatment room:; GTR4-PBS
Snout name:; s1
Radiation type:; Proton
Curve type [Depth/X/Y/AbsoluteDosimetry]:; X
Medium:; Air
Single spot [Yes/No]:; Yes
Isocenter to snout distance [mm]:; 430
Air profile depth [mm]:; 0
Nominal beam energy [MeV]:; 105
Measured fluence curve (X pos [mm] Y pos [mm] Fluence [a.u.]):;
-22.5; 0.0; 0.00149700598802395
-22; 0.0; 0.00149700598802395
-21.5; 0.0; 0.00149700598802395
-21; 0.0; 0
-20.5; 0.0; 0
-20; 0.0; 0
-19.5; 0.0; 0
-19; 0.0; 0
-18.5; 0.0; 0.00149700598802395
-18; 0.0; 0.00149700598802395
-17.5; 0.0; 0.0029940119760479
-17; 0.0; 0.0029940119760479
-16.5; 0.0; 0.00449101796407186
-16; 0.0; 0.00748502994011976
-15.5; 0.0; 0.0104790419161677
-15; 0.0; 0.0134730538922156
-14.5; 0.0; 0.0179640718562874
-14; 0.0; 0.0254491017964072
-13.5; 0.0; 0.0359281437125748
-13; 0.0; 0.0449101796407186
-12.5; 0.0; 0.0583832335329341
-12; 0.0; 0.0733532934131736
-11.5; 0.0; 0.0913173652694611
-11; 0.0; 0.109281437125749
-10.5; 0.0; 0.134730538922156
-10; 0.0; 0.164670658682635
-9.5; 0.0; 0.196107784431138
-9; 0.0; 0.233532934131737
-8.5; 0.0; 0.276946107784431
-8; 0.0; 0.32185628742515
-7.5; 0.0; 0.368263473053892
-7; 0.0; 0.422155688622754
-6.5; 0.0; 0.479041916167665
-6; 0.0; 0.537425149700599
-5.5; 0.0; 0.592814371257485
-5; 0.0; 0.651197604790419
-4.5; 0.0; 0.705089820359281
-4; 0.0; 0.75748502994012
-3.5; 0.0; 0.80688622754491
-3; 0.0; 0.851796407185629
-2.5; 0.0; 0.893712574850299
-2; 0.0; 0.931137724550898
-1.5; 0.0; 0.961077844311377
-1; 0.0; 0.980538922155689
-0.5; 0.0; 0.995508982035928
0; 0.0; 1
0.5; 0.0; 0.995508982035928
1; 0.0; 0.986526946107784
1.5; 0.0; 0.967065868263473
2; 0.0; 0.944610778443114
2.5; 0.0; 0.911676646706587
3; 0.0; 0.874251497005988
3.5; 0.0; 0.82934131736527
4; 0.0; 0.779940119760479
4.5; 0.0; 0.726047904191617
5; 0.0; 0.669161676646707
5.5; 0.0; 0.61377245508982
6; 0.0; 0.559880239520958
6.5; 0.0; 0.50748502994012
7; 0.0; 0.45059880239521
7.5; 0.0; 0.404191616766467
8; 0.0; 0.356287425149701
8.5; 0.0; 0.31437125748503
9; 0.0; 0.272455089820359
9.5; 0.0; 0.233532934131737
10; 0.0; 0.197604790419162
10.5; 0.0; 0.167664670658683
11; 0.0; 0.137724550898204
11.5; 0.0; 0.115269461077844
12; 0.0; 0.094311377245509
12.5; 0.0; 0.0763473053892216
13; 0.0; 0.062874251497006
13.5; 0.0; 0.0508982035928144
14; 0.0; 0.0389221556886228
14.5; 0.0; 0.029940119760479
15; 0.0; 0.0224550898203593
15.5; 0.0; 0.0179640718562874
16; 0.0; 0.0134730538922156
16.5; 0.0; 0.0119760479041916
17; 0.0; 0.00748502994011976
17.5; 0.0; 0.00598802395209581
18; 0.0; 0.00449101796407186
18.5; 0.0; 0.0029940119760479
19; 0.0; 0.0029940119760479
19.5; 0.0; 0.00149700598802395
20; 0.0; 0.00149700598802395
20.5; 0.0; 0.00149700598802395
21; 0.0; 0.00149700598802395
21.5; 0.0; 0.00149700598802395
22; 0.0; 0.00149700598802395
End:;
Origin of data [Measured/Computed]:; Measured
Machine/Treatment room:; GTR4-PBS
Snout name:; s1
Radiation type:; Proton
Curve type [Depth/X/Y/AbsoluteDosimetry]:; Y
Medium:; Air
Single spot [Yes/No]:; Yes
Isocenter to snout distance [mm]:; 430
Air profile depth [mm]:; 0
Nominal beam energy [MeV]:; 105
Measured fluence curve (X pos [mm] Y pos [mm] Fluence [a.u.]):;
0.0; -24.5; 0.00149700598802395
0.0; -24; 0.00149700598802395
0.0; -23.5; 0.00149700598802395
0.0; -23; 0.00149700598802395
0.0; -22.5; 0.00149700598802395
0.0; -22; 0.00149700598802395
0.0; -21.5; 0.00149700598802395
0.0; -21; 0.0029940119760479
0.0; -20.5; 0.0029940119760479
0.0; -20; 0.0029940119760479
0.0; -19.5; 0.0029940119760479
0.0; -19; 0.00449101796407186
0.0; -18.5; 0.00748502994011976
0.0; -18; 0.00898203592814371
0.0; -17.5; 0.00898203592814371
0.0; -17; 0.0119760479041916
0.0; -16.5; 0.0134730538922156
0.0; -16; 0.0164670658682635
0.0; -15.5; 0.0209580838323353
0.0; -15; 0.0254491017964072
0.0; -14.5; 0.0329341317365269
0.0; -14; 0.0404191616766467
0.0; -13.5; 0.0508982035928144
0.0; -13; 0.061377245508982
0.0; -12.5; 0.0748502994011976
0.0; -12; 0.0898203592814371
0.0; -11.5; 0.107784431137725
0.0; -11; 0.127245508982036
0.0; -10.5; 0.152694610778443
0.0; -10; 0.184131736526946
0.0; -9.5; 0.217065868263473
0.0; -9; 0.255988023952096
0.0; -8.5; 0.296407185628743
0.0; -8; 0.339820359281437
0.0; -7.5; 0.389221556886228
0.0; -7; 0.441616766467066
0.0; -6.5; 0.497005988023952
0.0; -6; 0.552395209580838
0.0; -5.5; 0.610778443113773
0.0; -5; 0.667664670658683
0.0; -4.5; 0.720059880239521
0.0; -4; 0.770958083832335
0.0; -3.5; 0.818862275449102
0.0; -3; 0.86377245508982
0.0; -2.5; 0.904191616766467
0.0; -2; 0.938622754491018
0.0; -1.5; 0.967065868263473
0.0; -1; 0.986526946107784
0.0; -0.5; 0.998502994011976
0.0; 0; 1
0.0; 0.5; 0.995508982035928
0.0; 1; 0.982035928143713
0.0; 1.5; 0.959580838323353
0.0; 2; 0.929640718562874
0.0; 2.5; 0.895209580838323
0.0; 3; 0.851796407185629
0.0; 3.5; 0.803892215568862
0.0; 4; 0.752994011976048
0.0; 4.5; 0.699101796407186
0.0; 5; 0.645209580838323
0.0; 5.5; 0.589820359281437
0.0; 6; 0.534431137724551
0.0; 6.5; 0.479041916167665
0.0; 7; 0.425149700598802
0.0; 7.5; 0.374251497005988
0.0; 8; 0.324850299401198
0.0; 8.5; 0.278443113772455
0.0; 9; 0.238023952095808
0.0; 9.5; 0.203592814371257
0.0; 10; 0.170658682634731
0.0; 10.5; 0.143712574850299
0.0; 11; 0.12125748502994
0.0; 11.5; 0.101796407185629
0.0; 12; 0.0838323353293413
0.0; 12.5; 0.0673652694610778
0.0; 13; 0.0553892215568862
0.0; 13.5; 0.0449101796407186
0.0; 14; 0.0359281437125748
0.0; 14.5; 0.0284431137724551
0.0; 15; 0.0239520958083832
0.0; 15.5; 0.0179640718562874
0.0; 16; 0.0149700598802395
0.0; 16.5; 0.0134730538922156
0.0; 17; 0.0104790419161677
0.0; 17.5; 0.00898203592814371
0.0; 18; 0.00598802395209581
0.0; 18.5; 0.00449101796407186
0.0; 19; 0.00449101796407186
0.0; 19.5; 0.0029940119760479
0.0; 20; 0.0029940119760479
0.0; 20.5; 0.00149700598802395
0.0; 21; 0.00149700598802395
0.0; 21.5; 0.00149700598802395
0.0; 22; 0.00149700598802395
End:;
Origin of data [Measured/Computed]:; Measured
Machine/Treatment room:; GTR4-PBS
Snout name:; s1
Radiation type:; Proton
Curve type [Depth/X/Y/AbsoluteDosimetry]:; X
Medium:; Air
Single spot [Yes/No]:; Yes
Isocenter to snout distance [mm]:; 430
Air profile depth [mm]:; 100
Nominal beam energy [MeV]:; 105
Measured fluence curve (X pos [mm] Y pos [mm] Fluence [a.u.]):;
-21.5; 0.0; 0.00136986301369863
-21; 0.0; 0
-20.5; 0.0; 0.00136986301369863
-20; 0.0; 0
-19.5; 0.0; 0
-19; 0.0; 0
-18.5; 0.0; 0
-18; 0.0; 0
-17.5; 0.0; 0
-17; 0.0; 0.00136986301369863
-16.5; 0.0; 0.00136986301369863
-16; 0.0; 0.00273972602739726
-15.5; 0.0; 0.00410958904109589
-15; 0.0; 0.00684931506849315
-14.5; 0.0; 0.010958904109589
-14; 0.0; 0.0136986301369863
-13.5; 0.0; 0.0178082191780822
-13; 0.0; 0.0246575342465753
-12.5; 0.0; 0.0328767123287671
-12; 0.0; 0.0438356164383562
-11.5; 0.0; 0.0547945205479452
-11; 0.0; 0.0712328767123288
-10.5; 0.0; 0.0904109589041096
-10; 0.0; 0.110958904109589
-9.5; 0.0; 0.138356164383562
-9; 0.0; 0.16986301369863
-8.5; 0.0; 0.206849315068493
-8; 0.0; 0.249315068493151
-7.5; 0.0; 0.295890410958904
-7; 0.0; 0.347945205479452
-6.5; 0.0; 0.402739726027397
-6; 0.0; 0.463013698630137
-5.5; 0.0; 0.521917808219178
-5; 0.0; 0.586301369863014
-4.5; 0.0; 0.650684931506849
-4; 0.0; 0.712328767123288
-3.5; 0.0; 0.768493150684932
-3; 0.0; 0.821917808219178
-2.5; 0.0; 0.871232876712329
-2; 0.0; 0.915068493150685
-1.5; 0.0; 0.949315068493151
-1; 0.0; 0.973972602739726
-0.5; 0.0; 0.991780821917808
0; 0.0; 1
0.5; 0.0; 0.995890410958904
1; 0.0; 0.983561643835616
1.5; 0.0; 0.961643835616438
2; 0.0; 0.932876712328767
2.5; 0.0; 0.893150684931507
3; 0.0; 0.847945205479452
3.5; 0.0; 0.798630136986301
4; 0.0; 0.742465753424657
4.5; 0.0; 0.684931506849315
5; 0.0; 0.627397260273973
5.5; 0.0; 0.567123287671233
6; 0.0; 0.505479452054795
6.5; 0.0; 0.445205479452055
7; 0.0; 0.386301369863014
7.5; 0.0; 0.331506849315069
8; 0.0; 0.283561643835616
8.5; 0.0; 0.241095890410959
9; 0.0; 0.202739726027397
9.5; 0.0; 0.167123287671233
10; 0.0; 0.136986301369863
10.5; 0.0; 0.110958904109589
11; 0.0; 0.0876712328767123
11.5; 0.0; 0.0698630136986301
12; 0.0; 0.0547945205479452
12.5; 0.0; 0.0424657534246575
13; 0.0; 0.0315068493150685
13.5; 0.0; 0.0246575342465753
14; 0.0; 0.0178082191780822
14.5; 0.0; 0.0136986301369863
15; 0.0; 0.010958904109589
15.5; 0.0; 0.00684931506849315
16; 0.0; 0.00410958904109589
16.5; 0.0; 0.00273972602739726
17; 0.0; 0.00136986301369863
17.5; 0.0; 0.00136986301369863
End:;
Origin of data [Measured/Computed]:; Measured
Machine/Treatment room:; GTR4-PBS
Snout name:; s1
Radiation type:; Proton
Curve type [Depth/X/Y/AbsoluteDosimetry]:; Y
Medium:; Air
Single spot [Yes/No]:; Yes
Isocenter to snout distance [mm]:; 430
Air profile depth [mm]:; 100
Nominal beam energy [MeV]:; 105
Measured fluence curve (X pos [mm] Y pos [mm] Fluence [a.u.]):;
0.0; -27; 0.00273972602739726
0.0; -26.5; 0.00273972602739726
0.0; -26; 0.00273972602739726
0.0; -25.5; 0.00273972602739726
0.0; -25; 0.00136986301369863
0.0; -24.5; 0.00273972602739726
0.0; -24; 0.00273972602739726
0.0; -23.5; 0.00273972602739726
0.0; -23; 0.00410958904109589
0.0; -22.5; 0.00410958904109589
0.0; -22; 0.00547945205479452
0.0; -21.5; 0.00547945205479452
0.0; -21; 0.00547945205479452
0.0; -20.5; 0.00547945205479452
0.0; -20; 0.00684931506849315
0.0; -19.5; 0.00821917808219178
0.0; -19; 0.00821917808219178
0.0; -18.5; 0.00958904109589041
0.0; -18; 0.010958904109589
0.0; -17.5; 0.0136986301369863
0.0; -17; 0.0164383561643836
0.0; -16.5; 0.0205479452054795
0.0; -16; 0.026027397260274
0.0; -15.5; 0.0328767123287671
0.0; -15; 0.0397260273972603
0.0; -14.5; 0.0493150684931507
0.0; -14; 0.0602739726027397
0.0; -13.5; 0.073972602739726
0.0; -13; 0.0917808219178082
0.0; -12.5; 0.113698630136986
0.0; -12; 0.13972602739726
0.0; -11.5; 0.171232876712329
0.0; -11; 0.205479452054795
0.0; -10.5; 0.245205479452055
0.0; -10; 0.287671232876712
0.0; -9.5; 0.335616438356164
0.0; -9; 0.387671232876712
0.0; -8.5; 0.445205479452055
0.0; -8; 0.504109589041096
0.0; -7.5; 0.563013698630137
0.0; -7; 0.621917808219178
0.0; -6.5; 0.680821917808219
0.0; -6; 0.735616438356164
0.0; -5.5; 0.79041095890411
0.0; -5; 0.83972602739726
0.0; -4.5; 0.884931506849315
0.0; -4; 0.923287671232877
0.0; -3.5; 0.954794520547945
0.0; -3; 0.978082191780822
0.0; -2.5; 0.993150684931507
0.0; -2; 1
0.0; -1.5; 0.995890410958904
0.0; -1; 0.982191780821918
0.0; -0.5; 0.957534246575342
0.0; 0; 0.927397260273973
0.0; 0.5; 0.89041095890411
0.0; 1; 0.843835616438356
0.0; 1.5; 0.793150684931507
0.0; 2; 0.742465753424657
0.0; 2.5; 0.687671232876712
0.0; 3; 0.627397260273973
0.0; 3.5; 0.568493150684932
0.0; 4; 0.506849315068493
0.0; 4.5; 0.447945205479452
0.0; 5; 0.39041095890411
0.0; 5.5; 0.335616438356164
0.0; 6; 0.287671232876712
0.0; 6.5; 0.245205479452055
0.0; 7; 0.204109589041096
0.0; 7.5; 0.16986301369863
0.0; 8; 0.13972602739726
0.0; 8.5; 0.113698630136986
0.0; 9; 0.0917808219178082
0.0; 9.5; 0.073972602739726
0.0; 10; 0.0602739726027397
0.0; 10.5; 0.0479452054794521
0.0; 11; 0.0383561643835616
0.0; 11.5; 0.0301369863013699
0.0; 12; 0.0246575342465753
0.0; 12.5; 0.0205479452054795
0.0; 13; 0.0150684931506849
0.0; 13.5; 0.0123287671232877
0.0; 14; 0.010958904109589
0.0; 14.5; 0.00958904109589041
0.0; 15; 0.00821917808219178
0.0; 15.5; 0.00821917808219178
0.0; 16; 0.00547945205479452
0.0; 16.5; 0.00410958904109589
0.0; 17; 0.00273972602739726
0.0; 17.5; 0.00410958904109589
0.0; 18; 0.00136986301369863
0.0; 18.5; 0.00136986301369863
0.0; 19; 0.00136986301369863
0.0; 19.5; 0.00136986301369863
0.0; 20; 0.00136986301369863
0.0; 20.5; 0.00136986301369863
0.0; 21; 0.00136986301369863
End:;
Origin of data [Measured/Computed]:; Measured
Machine/Treatment room:; GTR4-PBS
Snout name:; s1
Radiation type:; Proton
Curve type [Depth/X/Y/AbsoluteDosimetry]:; X
Medium:; Air
Single spot [Yes/No]:; Yes
Isocenter to snout distance [mm]:; 430
Air profile depth [mm]:; 200
Nominal beam energy [MeV]:; 105
Measured fluence curve (X pos [mm] Y pos [mm] Fluence [a.u.]):;
-27; 0.0; 0.00152671755725191
-26.5; 0.0; 0.00152671755725191
-26; 0.0; 0.00152671755725191
-25.5; 0.0; 0.00152671755725191
-25; 0.0; 0
-24.5; 0.0; 0
-24; 0.0; 0
-23.5; 0.0; 0
-23; 0.0; 0
-22.5; 0.0; 0.00152671755725191
-22; 0.0; 0.00152671755725191
-21.5; 0.0; 0.00152671755725191
-21; 0.0; 0.00152671755725191
-20.5; 0.0; 0.00305343511450382
-20; 0.0; 0.00305343511450382
-19.5; 0.0; 0.00152671755725191
-19; 0.0; 0.00152671755725191
-18.5; 0.0; 0
-18; 0.0; 0
-17.5; 0.0; 0
-17; 0.0; 0
-16.5; 0.0; 0.00152671755725191
-16; 0.0; 0.00152671755725191
-15.5; 0.0; 0.00458015267175573
-15; 0.0; 0.00458015267175573
-14.5; 0.0; 0.00610687022900763
-14; 0.0; 0.00610687022900763
-13.5; 0.0; 0.00763358778625954
-13; 0.0; 0.0122137404580153
-12.5; 0.0; 0.016793893129771
-12; 0.0; 0.0229007633587786
-11.5; 0.0; 0.0290076335877863
-11; 0.0; 0.0412213740458015
-10.5; 0.0; 0.0534351145038168
-10; 0.0; 0.0702290076335878
-9.5; 0.0; 0.0916030534351145
-9; 0.0; 0.119083969465649
-8.5; 0.0; 0.148091603053435
-8; 0.0; 0.184732824427481
-7.5; 0.0; 0.225954198473282
-7; 0.0; 0.27175572519084
-6.5; 0.0; 0.325190839694657
-6; 0.0; 0.383206106870229
-5.5; 0.0; 0.444274809160305
-5; 0.0; 0.512977099236641
-4.5; 0.0; 0.580152671755725
-4; 0.0; 0.650381679389313
-3.5; 0.0; 0.717557251908397
-3; 0.0; 0.781679389312977
-2.5; 0.0; 0.83969465648855
-2; 0.0; 0.893129770992366
-1.5; 0.0; 0.93587786259542
-1; 0.0; 0.96793893129771
-0.5; 0.0; 0.99236641221374
0; 0.0; 1
0.5; 0.0; 0.996946564885496
1; 0.0; 0.978625954198473
1.5; 0.0; 0.951145038167939
2; 0.0; 0.914503816793893
2.5; 0.0; 0.870229007633588
3; 0.0; 0.815267175572519
3.5; 0.0; 0.755725190839695
4; 0.0; 0.688549618320611
4.5; 0.0; 0.618320610687023
5; 0.0; 0.548091603053435
5.5; 0.0; 0.480916030534351
6; 0.0; 0.413740458015267
6.5; 0.0; 0.354198473282443
7; 0.0; 0.299236641221374
7.5; 0.0; 0.248854961832061
8; 0.0; 0.204580152671756
8.5; 0.0; 0.16793893129771
9; 0.0; 0.13587786259542
9.5; 0.0; 0.108396946564885
10; 0.0; 0.0824427480916031
10.5; 0.0; 0.0625954198473282
11; 0.0; 0.0458015267175573
11.5; 0.0; 0.0351145038167939
12; 0.0; 0.0274809160305344
12.5; 0.0; 0.0198473282442748
13; 0.0; 0.0137404580152672
13.5; 0.0; 0.0122137404580153
14; 0.0; 0.00763358778625954
14.5; 0.0; 0.00458015267175573
15; 0.0; 0.00305343511450382
15.5; 0.0; 0.00305343511450382
16; 0.0; 0.00305343511450382
16.5; 0.0; 0.00152671755725191
17; 0.0; 0.00152671755725191
17.5; 0.0; 0.00152671755725191
18; 0.0; 0.00152671755725191
18.5; 0.0; 0.00152671755725191
19; 0.0; 0
19.5; 0.0; 0
20; 0.0; 0
20.5; 0.0; 0
21; 0.0; 0.00152671755725191
21.5; 0.0; 0.00152671755725191
22; 0.0; 0.00152671755725191
22.5; 0.0; 0.00152671755725191
End:;
Origin of data [Measured/Computed]:; Measured
Machine/Treatment room:; GTR4-PBS
Snout name:; s1
Radiation type:; Proton
Curve type [Depth/X/Y/AbsoluteDosimetry]:; Y
Medium:; Air
Single spot [Yes/No]:; Yes
Isocenter to snout distance [mm]:; 430
Air profile depth [mm]:; 200
Nominal beam energy [MeV]:; 105
Measured fluence curve (X pos [mm] Y pos [mm] Fluence [a.u.]):;
0.0; -27; 0.00305343511450382
0.0; -26.5; 0.00305343511450382
0.0; -26; 0.00305343511450382
0.0; -25.5; 0.00305343511450382
0.0; -25; 0.00305343511450382
0.0; -24.5; 0.00305343511450382
0.0; -24; 0.00152671755725191
0.0; -23.5; 0.00152671755725191
0.0; -23; 0.00458015267175573
0.0; -22.5; 0.00458015267175573
0.0; -22; 0.00458015267175573
0.0; -21.5; 0.00458015267175573
0.0; -21; 0.00458015267175573
0.0; -20.5; 0.00610687022900763
0.0; -20; 0.00610687022900763
0.0; -19.5; 0.00458015267175573
0.0; -19; 0.00458015267175573
0.0; -18.5; 0.00610687022900763
0.0; -18; 0.00916030534351145
0.0; -17.5; 0.00916030534351145
0.0; -17; 0.0106870229007634
0.0; -16.5; 0.0137404580152672
0.0; -16; 0.0152671755725191
0.0; -15.5; 0.0183206106870229
0.0; -15; 0.0259541984732824
0.0; -14.5; 0.0320610687022901
0.0; -14; 0.0396946564885496
0.0; -13.5; 0.050381679389313
0.0; -13; 0.0625954198473282
0.0; -12.5; 0.0793893129770992
0.0; -12; 0.0977099236641221
0.0; -11.5; 0.123664122137405
0.0; -11; 0.152671755725191
0.0; -10.5; 0.186259541984733
0.0; -10; 0.227480916030534
0.0; -9.5; 0.276335877862595
0.0; -9; 0.326717557251908
0.0; -8.5; 0.381679389312977
0.0; -8; 0.441221374045802
0.0; -7.5; 0.50381679389313
0.0; -7; 0.566412213740458
0.0; -6.5; 0.63206106870229
0.0; -6; 0.697709923664122
0.0; -5.5; 0.76030534351145
0.0; -5; 0.816793893129771
0.0; -4.5; 0.868702290076336
0.0; -4; 0.911450381679389
0.0; -3.5; 0.948091603053435
0.0; -3; 0.975572519083969
0.0; -2.5; 0.993893129770992
0.0; -2; 1
0.0; -1.5; 0.996946564885496
0.0; -1; 0.980152671755725
0.0; -0.5; 0.954198473282443
0.0; 0; 0.919083969465649
0.0; 0.5; 0.877862595419847
0.0; 1; 0.825954198473282
0.0; 1.5; 0.769465648854962
0.0; 2; 0.712977099236641
0.0; 2.5; 0.650381679389313
0.0; 3; 0.584732824427481
0.0; 3.5; 0.519083969465649
0.0; 4; 0.454961832061069
0.0; 4.5; 0.390839694656489
0.0; 5; 0.33587786259542
0.0; 5.5; 0.282442748091603
0.0; 6; 0.235114503816794
0.0; 6.5; 0.193893129770992
0.0; 7; 0.157251908396947
0.0; 7.5; 0.126717557251908
0.0; 8; 0.099236641221374
0.0; 8.5; 0.0793893129770992
0.0; 9; 0.0610687022900763
0.0; 9.5; 0.050381679389313
0.0; 10; 0.0396946564885496
0.0; 10.5; 0.0305343511450382
0.0; 11; 0.0244274809160305
0.0; 11.5; 0.0183206106870229
0.0; 12; 0.0137404580152672
0.0; 12.5; 0.0122137404580153
0.0; 13; 0.0106870229007634
0.0; 13.5; 0.00916030534351145
0.0; 14; 0.00610687022900763
0.0; 14.5; 0.00458015267175573
0.0; 15; 0.00458015267175573
0.0; 15.5; 0.00458015267175573
0.0; 16; 0.00305343511450382
0.0; 16.5; 0.00305343511450382
0.0; 17; 0.00305343511450382
0.0; 17.5; 0.00305343511450382
0.0; 18; 0.00152671755725191
0.0; 18.5; 0.00152671755725191
0.0; 19; 0.00152671755725191
0.0; 19.5; 0.00152671755725191
0.0; 20; 0.00152671755725191
0.0; 20.5; 0.00152671755725191
0.0; 21; 0.00152671755725191
0.0; 21.5; 0.00152671755725191
End:;
Origin of data [Measured/Computed]:; Measured
Machine/Treatment room:; GTR4-PBS
Snout name:; s1
Radiation type:; Proton
Curve type [Depth/X/Y/AbsoluteDosimetry]:; X
Medium:; Air
Single spot [Yes/No]:; Yes
Isocenter to snout distance [mm]:; 430
Air profile depth [mm]:; -100
Nominal beam energy [MeV]:; 105
Measured fluence curve (X pos [mm] Y pos [mm] Fluence [a.u.]):;
-27; 0.0; 0.00143061516452074
-26.5; 0.0; 0.00143061516452074
-26; 0.0; 0.00143061516452074
-25.5; 0.0; 0.00143061516452074
-25; 0.0; 0
-24.5; 0.0; 0
-24; 0.0; 0
-23.5; 0.0; 0
-23; 0.0; 0.00143061516452074
-22.5; 0.0; 0.00143061516452074
-22; 0.0; 0.00286123032904149
-21.5; 0.0; 0.00286123032904149
-21; 0.0; 0.00143061516452074
-20.5; 0.0; 0.00429184549356223
-20; 0.0; 0.00429184549356223
-19.5; 0.0; 0.00429184549356223
-19; 0.0; 0.00429184549356223
-18.5; 0.0; 0.00572246065808298
-18; 0.0; 0.00572246065808298
-17.5; 0.0; 0.0100143061516452
-17; 0.0; 0.011444921316166
-16.5; 0.0; 0.0143061516452074
-16; 0.0; 0.0214592274678112
-15.5; 0.0; 0.0271816881258941
-15; 0.0; 0.0343347639484979
-14.5; 0.0; 0.0414878397711016
-14; 0.0; 0.0515021459227468
-13.5; 0.0; 0.0629470672389127
-13; 0.0; 0.0801144492131617
-12.5; 0.0; 0.0972818311874106
-12; 0.0; 0.118741058655222
-11.5; 0.0; 0.140200286123033
-11; 0.0; 0.165951359084406
-10.5; 0.0; 0.194563662374821
-10; 0.0; 0.226037195994278
-9.5; 0.0; 0.261802575107296
-9; 0.0; 0.303290414878398
-8.5; 0.0; 0.347639484978541
-8; 0.0; 0.393419170243205
-7.5; 0.0; 0.443490701001431
-7; 0.0; 0.493562231759657
-6.5; 0.0; 0.549356223175966
-6; 0.0; 0.605150214592275
-5.5; 0.0; 0.655221745350501
-5; 0.0; 0.708154506437768
-4.5; 0.0; 0.756795422031474
-4; 0.0; 0.801144492131617
-3.5; 0.0; 0.84549356223176
-3; 0.0; 0.88412017167382
-2.5; 0.0; 0.919885550786838
-2; 0.0; 0.947067238912732
-1.5; 0.0; 0.969957081545064
-1; 0.0; 0.985693848354793
-0.5; 0.0; 0.997138769670958
0; 0.0; 1
0.5; 0.0; 0.998569384835479
1; 0.0; 0.988555078683834
1.5; 0.0; 0.971387696709585
2; 0.0; 0.949928469241774
2.5; 0.0; 0.919885550786838
3; 0.0; 0.88555078683834
3.5; 0.0; 0.848354792560801
4; 0.0; 0.8068669527897
4.5; 0.0; 0.762517882689557
5; 0.0; 0.718168812589413
5.5; 0.0; 0.670958512160229
6; 0.0; 0.620886981402003
6.5; 0.0; 0.572246065808298
7; 0.0; 0.525035765379113
7.5; 0.0; 0.476394849785408
8; 0.0; 0.429184549356223
8.5; 0.0; 0.386266094420601
9; 0.0; 0.341917024320458
9.5; 0.0; 0.301859799713877
10; 0.0; 0.263233190271817
10.5; 0.0; 0.227467811158798
11; 0.0; 0.195994277539342
11.5; 0.0; 0.170243204577969
12; 0.0; 0.145922746781116
12.5; 0.0; 0.123032904148784
13; 0.0; 0.103004291845494
13.5; 0.0; 0.0872675250357654
14; 0.0; 0.0715307582260372
14.5; 0.0; 0.0586552217453505
15; 0.0; 0.0472103004291846
15.5; 0.0; 0.0400572246065808
16; 0.0; 0.0314735336194564
16.5; 0.0; 0.0257510729613734
17; 0.0; 0.0200286123032904
17.5; 0.0; 0.0157367668097282
18; 0.0; 0.0128755364806867
18.5; 0.0; 0.011444921316166
19; 0.0; 0.00715307582260372
19.5; 0.0; 0.00429184549356223
20; 0.0; 0.00286123032904149
20.5; 0.0; 0.00143061516452074
21; 0.0; 0.00286123032904149
21.5; 0.0; 0.00143061516452074
22; 0.0; 0.00143061516452074
22.5; 0.0; 0.00143061516452074
End:;
Origin of data [Measured/Computed]:; Measured
Machine/Treatment room:; GTR4-PBS
Snout name:; s1
Radiation type:; Proton
Curve type [Depth/X/Y/AbsoluteDosimetry]:; Y
Medium:; Air
Single spot [Yes/No]:; Yes
Isocenter to snout distance [mm]:; 430
Air profile depth [mm]:; -100
Nominal beam energy [MeV]:; 105
Measured fluence curve (X pos [mm] Y pos [mm] Fluence [a.u.]):;
0.0; -27; 0.00572246065808298
0.0; -26.5; 0.00429184549356223
0.0; -26; 0.00429184549356223
0.0; -25.5; 0.00429184549356223
0.0; -25; 0.00429184549356223
0.0; -24.5; 0.00429184549356223
0.0; -24; 0.00429184549356223
0.0; -23.5; 0.00572246065808298
0.0; -23; 0.00572246065808298
0.0; -22.5; 0.00715307582260372
0.0; -22; 0.00715307582260372
0.0; -21.5; 0.0100143061516452
0.0; -21; 0.011444921316166
0.0; -20.5; 0.0128755364806867
0.0; -20; 0.0143061516452074
0.0; -19.5; 0.0171673819742489
0.0; -19; 0.0171673819742489
0.0; -18.5; 0.0214592274678112
0.0; -18; 0.0257510729613734
0.0; -17.5; 0.0300429184549356
0.0; -17; 0.0386266094420601
0.0; -16.5; 0.0457796852646638
0.0; -16; 0.0543633762517883
0.0; -15.5; 0.0658082975679542
0.0; -15; 0.0772532188841202
0.0; -14.5; 0.0929899856938484
0.0; -14; 0.111587982832618
0.0; -13.5; 0.128755364806867
0.0; -13; 0.15450643776824
0.0; -12.5; 0.181688125894134
0.0; -12; 0.21173104434907
0.0; -11.5; 0.246065808297568
0.0; -11; 0.283261802575107
0.0; -10.5; 0.323319027181688
0.0; -10; 0.36623748211731
0.0; -9.5; 0.412017167381974
0.0; -9; 0.459227467811159
0.0; -8.5; 0.512160228898426
0.0; -8; 0.563662374821173
0.0; -7.5; 0.616595135908441
0.0; -7; 0.669527896995708
0.0; -6.5; 0.718168812589413
0.0; -6; 0.763948497854077
0.0; -5.5; 0.8068669527897
0.0; -5; 0.848354792560801
0.0; -4.5; 0.88555078683834
0.0; -4; 0.918454935622318
0.0; -3.5; 0.945636623748212
0.0; -3; 0.971387696709585
0.0; -2.5; 0.987124463519313
0.0; -2; 0.997138769670958
0.0; -1.5; 1
0.0; -1; 0.997138769670958
0.0; -0.5; 0.982832618025751
0.0; 0; 0.962804005722461
0.0; 0.5; 0.938483547925608
0.0; 1; 0.905579399141631
0.0; 1.5; 0.86552217453505
0.0; 2; 0.825464949928469
0.0; 2.5; 0.785407725321888
0.0; 3; 0.738197424892704
0.0; 3.5; 0.688125894134478
0.0; 4; 0.636623748211731
0.0; 4.5; 0.585121602288984
0.0; 5; 0.530758226037196
0.0; 5.5; 0.479256080114449
0.0; 6; 0.429184549356223
0.0; 6.5; 0.381974248927039
0.0; 7; 0.337625178826896
0.0; 7.5; 0.296137339055794
0.0; 8; 0.257510729613734
0.0; 8.5; 0.221745350500715
0.0; 9; 0.19170243204578
0.0; 9.5; 0.163090128755365
0.0; 10; 0.140200286123033
0.0; 10.5; 0.117310443490701
0.0; 11; 0.0987124463519313
0.0; 11.5; 0.0815450643776824
0.0; 12; 0.067238912732475
0.0; 12.5; 0.0543633762517883
0.0; 13; 0.0472103004291846
0.0; 13.5; 0.0386266094420601
0.0; 14; 0.0314735336194564
0.0; 14.5; 0.0271816881258941
0.0; 15; 0.0228898426323319
0.0; 15.5; 0.0185979971387697
0.0; 16; 0.0171673819742489
0.0; 16.5; 0.0143061516452074
0.0; 17; 0.011444921316166
0.0; 17.5; 0.0100143061516452
0.0; 18; 0.0100143061516452
0.0; 18.5; 0.00572246065808298
0.0; 19; 0.00429184549356223
0.0; 19.5; 0.00429184549356223
0.0; 20; 0.00429184549356223
0.0; 20.5; 0.00286123032904149
0.0; 21; 0.00286123032904149
0.0; 21.5; 0.00143061516452074
0.0; 22; 0.00143061516452074
0.0; 22.5; 0.00143061516452074
End:;
Origin of data [Measured/Computed]:; Measured
Machine/Treatment room:; GTR4-PBS
Snout name:; s1
Radiation type:; Proton
Curve type [Depth/X/Y/AbsoluteDosimetry]:; X
Medium:; Air
Single spot [Yes/No]:; Yes
Isocenter to snout distance [mm]:; 430
Air profile depth [mm]:; -200
Nominal beam energy [MeV]:; 105
Measured fluence curve (X pos [mm] Y pos [mm] Fluence [a.u.]):;
-25; 0.0; 0.00140646976090014
-24.5; 0.0; 0.00140646976090014
-24; 0.0; 0.00140646976090014
-23.5; 0.0; 0
-23; 0.0; 0
-22.5; 0.0; 0.00140646976090014
-22; 0.0; 0.00140646976090014
-21.5; 0.0; 0.00140646976090014
-21; 0.0; 0.00281293952180028
-20.5; 0.0; 0.00421940928270042
-20; 0.0; 0.0070323488045007
-19.5; 0.0; 0.00843881856540084
-19; 0.0; 0.0112517580872011
-18.5; 0.0; 0.0140646976090014
-18; 0.0; 0.0168776371308017
-17.5; 0.0; 0.0210970464135021
-17; 0.0; 0.0253164556962025
-16.5; 0.0; 0.029535864978903
-16; 0.0; 0.0365682137834037
-15.5; 0.0; 0.0464135021097046
-15; 0.0; 0.0576652601969058
-14.5; 0.0; 0.0717299578059072
-14; 0.0; 0.0857946554149086
-13.5; 0.0; 0.10407876230661
-13; 0.0; 0.125175808720113
-12.5; 0.0; 0.144866385372714
-12; 0.0; 0.171589310829817
-11.5; 0.0; 0.19971870604782
-11; 0.0; 0.229254571026723
-10.5; 0.0; 0.263009845288326
-10; 0.0; 0.29957805907173
-9.5; 0.0; 0.337552742616034
-9; 0.0; 0.379746835443038
-8.5; 0.0; 0.423347398030942
-8; 0.0; 0.469760900140647
-7.5; 0.0; 0.516174402250352
-7; 0.0; 0.563994374120956
-6.5; 0.0; 0.613220815752461
-6; 0.0; 0.661040787623066
-5.5; 0.0; 0.704641350210971
-5; 0.0; 0.751054852320675
-4.5; 0.0; 0.79606188466948
-4; 0.0; 0.834036568213783
-3.5; 0.0; 0.869198312236287
-3; 0.0; 0.90436005625879
-2.5; 0.0; 0.931082981715893
-2; 0.0; 0.953586497890295
-1.5; 0.0; 0.974683544303797
-1; 0.0; 0.988748241912799
-0.5; 0.0; 0.9971870604782
0; 0.0; 1
0.5; 0.0; 0.9957805907173
1; 0.0; 0.983122362869198
1.5; 0.0; 0.967651195499297
2; 0.0; 0.947960618846695
2.5; 0.0; 0.922644163150492
3; 0.0; 0.894514767932489
3.5; 0.0; 0.863572433192686
4; 0.0; 0.828410689170183
4.5; 0.0; 0.790436005625879
5; 0.0; 0.749648382559775
5.5; 0.0; 0.70323488045007
6; 0.0; 0.658227848101266
6.5; 0.0; 0.616033755274262
7; 0.0; 0.571026722925457
7.5; 0.0; 0.527426160337553
8; 0.0; 0.482419127988748
8.5; 0.0; 0.441631504922644
9; 0.0; 0.39803094233474
9.5; 0.0; 0.357243319268636
10; 0.0; 0.322081575246132
10.5; 0.0; 0.288326300984529
11; 0.0; 0.254571026722925
11.5; 0.0; 0.222222222222222
12; 0.0; 0.19549929676512
12.5; 0.0; 0.168776371308017
13; 0.0; 0.146272855133615
13.5; 0.0; 0.125175808720113
14; 0.0; 0.105485232067511
14.5; 0.0; 0.090014064697609
15; 0.0; 0.0759493670886076
15.5; 0.0; 0.0646976090014065
16; 0.0; 0.0548523206751055
16.5; 0.0; 0.0450070323488045
17; 0.0; 0.0393811533052039
17.5; 0.0; 0.0309423347398031
18; 0.0; 0.0267229254571027
18.5; 0.0; 0.0210970464135021
19; 0.0; 0.0168776371308017
19.5; 0.0; 0.0140646976090014
20; 0.0; 0.0112517580872011
20.5; 0.0; 0.0070323488045007
21; 0.0; 0.00421940928270042
21.5; 0.0; 0.00281293952180028
22; 0.0; 0.00281293952180028
22.5; 0.0; 0.00281293952180028
23; 0.0; 0.00140646976090014
23.5; 0.0; 0.00140646976090014
24; 0.0; 0.00140646976090014
End:;
Origin of data [Measured/Computed]:; Measured
Machine/Treatment room:; GTR4-PBS
Snout name:; s1
Radiation type:; Proton
Curve type [Depth/X/Y/AbsoluteDosimetry]:; Y
Medium:; Air
Single spot [Yes/No]:; Yes
Isocenter to snout distance [mm]:; 430
Air profile depth [mm]:; -200
Nominal beam energy [MeV]:; 105
Measured fluence curve (X pos [mm] Y pos [mm] Fluence [a.u.]):;
0.0; -25.5; 0.00421940928270042
0.0; -25; 0.00421940928270042
0.0; -24.5; 0.00421940928270042
0.0; -24; 0.00562587904360056
0.0; -23.5; 0.00562587904360056
0.0; -23; 0.00562587904360056
0.0; -22.5; 0.00562587904360056
0.0; -22; 0.0070323488045007
0.0; -21.5; 0.00984528832630099
0.0; -21; 0.0112517580872011
0.0; -20.5; 0.0126582278481013
0.0; -20; 0.0140646976090014
0.0; -19.5; 0.0154711673699015
0.0; -19; 0.0182841068917018
0.0; -18.5; 0.0225035161744023
0.0; -18; 0.0253164556962025
0.0; -17.5; 0.0309423347398031
0.0; -17; 0.0351617440225035
0.0; -16.5; 0.0421940928270042
0.0; -16; 0.0506329113924051
0.0; -15.5; 0.060478199718706
0.0; -15; 0.0731364275668073
0.0; -14.5; 0.0857946554149086
0.0; -14; 0.10126582278481
0.0; -13.5; 0.120956399437412
0.0; -13; 0.140646976090014
0.0; -12.5; 0.163150492264416
0.0; -12; 0.188466947960619
0.0; -11.5; 0.216596343178622
0.0; -11; 0.247538677918425
0.0; -10.5; 0.284106891701828
0.0; -10; 0.320675105485232
0.0; -9.5; 0.360056258790436
0.0; -9; 0.40225035161744
0.0; -8.5; 0.447257383966245
0.0; -8; 0.49507735583685
0.0; -7.5; 0.541490857946554
0.0; -7; 0.590717299578059
0.0; -6.5; 0.638537271448664
0.0; -6; 0.683544303797468
0.0; -5.5; 0.728551336146273
0.0; -5; 0.774964838255978
0.0; -4.5; 0.817158931082982
0.0; -4; 0.856540084388186
0.0; -3.5; 0.894514767932489
0.0; -3; 0.926863572433193
0.0; -2.5; 0.954992967651195
0.0; -2; 0.974683544303797
0.0; -1.5; 0.991561181434599
0.0; -1; 1
0.0; -0.5; 1
0.0; 0; 0.9971870604782
0.0; 0.5; 0.985935302390999
0.0; 1; 0.969057665260197
0.0; 1.5; 0.946554149085795
0.0; 2; 0.918424753867792
0.0; 2.5; 0.887482419127989
0.0; 3; 0.850914205344585
0.0; 3.5; 0.811533052039381
0.0; 4; 0.769338959212377
0.0; 4.5; 0.722925457102672
0.0; 5; 0.672292545710267
0.0; 5.5; 0.624472573839662
0.0; 6; 0.575246132208158
0.0; 6.5; 0.526019690576653
0.0; 7; 0.479606188466948
0.0; 7.5; 0.433192686357243
0.0; 8; 0.388185654008439
0.0; 8.5; 0.344585091420534
0.0; 9; 0.306610407876231
0.0; 9.5; 0.270042194092827
0.0; 10; 0.237693389592124
0.0; 10.5; 0.205344585091421
0.0; 11; 0.178621659634318
0.0; 11.5; 0.153305203938115
0.0; 12; 0.130801687763713
0.0; 12.5; 0.113924050632911
0.0; 13; 0.0970464135021097
0.0; 13.5; 0.080168776371308
0.0; 14; 0.0675105485232067
0.0; 14.5; 0.0562587904360056
0.0; 15; 0.0478199718706048
0.0; 15.5; 0.0407876230661041
0.0; 16; 0.0337552742616034
0.0; 16.5; 0.0281293952180028
0.0; 17; 0.0253164556962025
0.0; 17.5; 0.019690576652602
0.0; 18; 0.0168776371308017
0.0; 18.5; 0.0140646976090014
0.0; 19; 0.0126582278481013
0.0; 19.5; 0.00984528832630099
0.0; 20; 0.0070323488045007
0.0; 20.5; 0.00562587904360056
0.0; 21; 0.00421940928270042
0.0; 21.5; 0.00281293952180028
0.0; 22; 0.00281293952180028
0.0; 22.5; 0.00140646976090014
0.0; 23; 0.00140646976090014
0.0; 23.5; 0.00140646976090014
End:;
Origin of data [Measured/Computed]:; Measured
Machine/Treatment room:; GTR4-PBS
Snout name:; s1
Radiation type:; Proton
Curve type [Depth/X/Y/AbsoluteDosimetry]:; X
Medium:; Air
Single spot [Yes/No]:; Yes
Isocenter to snout distance [mm]:; 430
Air profile depth [mm]:; 0
Nominal beam energy [MeV]:; 110
Measured fluence curve (X pos [mm] Y pos [mm] Fluence [a.u.]):;
-18; 0.0; 0.00141843971631206
-17.5; 0.0; 0.00141843971631206
-17; 0.0; 0.00283687943262411
-16.5; 0.0; 0.00425531914893617
-16; 0.0; 0.00567375886524823
-15.5; 0.0; 0.0099290780141844
-15; 0.0; 0.0127659574468085
-14.5; 0.0; 0.0170212765957447
-14; 0.0; 0.024113475177305
-13.5; 0.0; 0.0312056737588652
-13; 0.0; 0.0411347517730496
-12.5; 0.0; 0.0524822695035461
-12; 0.0; 0.0652482269503546
-11.5; 0.0; 0.0822695035460993
-11; 0.0; 0.100709219858156
-10.5; 0.0; 0.123404255319149
-10; 0.0; 0.153191489361702
-9.5; 0.0; 0.185815602836879
-9; 0.0; 0.221276595744681
-8.5; 0.0; 0.26241134751773
-8; 0.0; 0.306382978723404
-7.5; 0.0; 0.354609929078014
-7; 0.0; 0.40709219858156
-6.5; 0.0; 0.459574468085106
-6; 0.0; 0.517730496453901
-5.5; 0.0; 0.574468085106383
-5; 0.0; 0.632624113475177
-4.5; 0.0; 0.68936170212766
-4; 0.0; 0.746099290780142
-3.5; 0.0; 0.798581560283688
-3; 0.0; 0.84822695035461
-2.5; 0.0; 0.893617021276596
-2; 0.0; 0.929078014184397
-1.5; 0.0; 0.960283687943262
-1; 0.0; 0.981560283687943
-0.5; 0.0; 0.994326241134752
0; 0.0; 1
0.5; 0.0; 0.995744680851064
1; 0.0; 0.984397163120567
1.5; 0.0; 0.964539007092199
2; 0.0; 0.934751773049645
2.5; 0.0; 0.897872340425532
3; 0.0; 0.858156028368794
3.5; 0.0; 0.812765957446808
4; 0.0; 0.763120567375887
4.5; 0.0; 0.707801418439716
5; 0.0; 0.653900709219858
5.5; 0.0; 0.595744680851064
6; 0.0; 0.534751773049645
6.5; 0.0; 0.476595744680851
7; 0.0; 0.424113475177305
7.5; 0.0; 0.374468085106383
8; 0.0; 0.327659574468085
8.5; 0.0; 0.283687943262411
9; 0.0; 0.246808510638298
9.5; 0.0; 0.20709219858156
10; 0.0; 0.177304964539007
10.5; 0.0; 0.147517730496454
11; 0.0; 0.121985815602837
11.5; 0.0; 0.099290780141844
12; 0.0; 0.0794326241134752
12.5; 0.0; 0.0638297872340425
13; 0.0; 0.051063829787234
13.5; 0.0; 0.0397163120567376
14; 0.0; 0.0297872340425532
14.5; 0.0; 0.024113475177305
15; 0.0; 0.0170212765957447
15.5; 0.0; 0.0141843971631206
16; 0.0; 0.0099290780141844
16.5; 0.0; 0.00709219858156028
17; 0.0; 0.00425531914893617
17.5; 0.0; 0.00425531914893617
18; 0.0; 0.00283687943262411
18.5; 0.0; 0.00141843971631206
19; 0.0; 0.00141843971631206
19.5; 0.0; 0.00141843971631206
20; 0.0; 0.00141843971631206
20.5; 0.0; 0.00141843971631206
21; 0.0; 0.00141843971631206
21.5; 0.0; 0.00141843971631206
22; 0.0; 0.00141843971631206
End:;
Origin of data [Measured/Computed]:; Measured
Machine/Treatment room:; GTR4-PBS
Snout name:; s1
Radiation type:; Proton
Curve type [Depth/X/Y/AbsoluteDosimetry]:; Y
Medium:; Air
Single spot [Yes/No]:; Yes
Isocenter to snout distance [mm]:; 430
Air profile depth [mm]:; 0
Nominal beam energy [MeV]:; 110
Measured fluence curve (X pos [mm] Y pos [mm] Fluence [a.u.]):;
0.0; -25; 0.00141843971631206
0.0; -24.5; 0.00141843971631206
0.0; -24; 0.00141843971631206
0.0; -23.5; 0.00141843971631206
0.0; -23; 0.00141843971631206
0.0; -22.5; 0.00141843971631206
0.0; -22; 0.00141843971631206
0.0; -21.5; 0.00141843971631206
0.0; -21; 0.00283687943262411
0.0; -20.5; 0.00283687943262411
0.0; -20; 0.00283687943262411
0.0; -19.5; 0.00425531914893617
0.0; -19; 0.00425531914893617
0.0; -18.5; 0.00425531914893617
0.0; -18; 0.00709219858156028
0.0; -17.5; 0.00851063829787234
0.0; -17; 0.0099290780141844
0.0; -16.5; 0.0127659574468085
0.0; -16; 0.0141843971631206
0.0; -15.5; 0.0184397163120567
0.0; -15; 0.0226950354609929
0.0; -14.5; 0.0269503546099291
0.0; -14; 0.0340425531914894
0.0; -13.5; 0.0425531914893617
0.0; -13; 0.051063829787234
0.0; -12.5; 0.0624113475177305
0.0; -12; 0.0780141843971631
0.0; -11.5; 0.0936170212765957
0.0; -11; 0.114893617021277
0.0; -10.5; 0.13758865248227
0.0; -10; 0.164539007092199
0.0; -9.5; 0.197163120567376
0.0; -9; 0.232624113475177
0.0; -8.5; 0.272340425531915
0.0; -8; 0.317730496453901
0.0; -7.5; 0.365957446808511
0.0; -7; 0.421276595744681
0.0; -6.5; 0.479432624113475
0.0; -6; 0.534751773049645
0.0; -5.5; 0.594326241134752
0.0; -5; 0.652482269503546
0.0; -4.5; 0.709219858156028
0.0; -4; 0.761702127659574
0.0; -3.5; 0.811347517730496
0.0; -3; 0.859574468085106
0.0; -2.5; 0.900709219858156
0.0; -2; 0.934751773049645
0.0; -1.5; 0.961702127659574
0.0; -1; 0.982978723404255
0.0; -0.5; 0.994326241134752
0.0; 0; 1
0.0; 0.5; 0.995744680851064
0.0; 1; 0.982978723404255
0.0; 1.5; 0.960283687943262
0.0; 2; 0.927659574468085
0.0; 2.5; 0.890780141843972
0.0; 3; 0.84822695035461
0.0; 3.5; 0.798581560283688
0.0; 4; 0.747517730496454
0.0; 4.5; 0.695035460992908
0.0; 5; 0.638297872340426
0.0; 5.5; 0.580141843971631
0.0; 6; 0.523404255319149
0.0; 6.5; 0.466666666666667
0.0; 7; 0.408510638297872
0.0; 7.5; 0.357446808510638
0.0; 8; 0.31063829787234
0.0; 8.5; 0.266666666666667
0.0; 9; 0.224113475177305
0.0; 9.5; 0.190070921985816
0.0; 10; 0.15886524822695
0.0; 10.5; 0.131914893617021
0.0; 11; 0.107801418439716
0.0; 11.5; 0.0879432624113475
0.0; 12; 0.0723404255319149
0.0; 12.5; 0.0581560283687943
0.0; 13; 0.0482269503546099
0.0; 13.5; 0.0382978723404255
0.0; 14; 0.0297872340425532
0.0; 14.5; 0.025531914893617
0.0; 15; 0.0212765957446809
0.0; 15.5; 0.0156028368794326
0.0; 16; 0.0127659574468085
0.0; 16.5; 0.0113475177304965
0.0; 17; 0.0099290780141844
0.0; 17.5; 0.00567375886524823
0.0; 18; 0.00567375886524823
0.0; 18.5; 0.00425531914893617
0.0; 19; 0.00425531914893617
0.0; 19.5; 0.00425531914893617
0.0; 20; 0.00283687943262411
0.0; 20.5; 0.00283687943262411
0.0; 21; 0.00141843971631206
0.0; 21.5; 0.00141843971631206
End:;
Origin of data [Measured/Computed]:; Measured
Machine/Treatment room:; GTR4-PBS
Snout name:; s1
Radiation type:; Proton
Curve type [Depth/X/Y/AbsoluteDosimetry]:; X
Medium:; Air
Single spot [Yes/No]:; Yes
Isocenter to snout distance [mm]:; 430
Air profile depth [mm]:; 100
Nominal beam energy [MeV]:; 110
Measured fluence curve (X pos [mm] Y pos [mm] Fluence [a.u.]):;
-27; 0.0; 0.00168634064080944
-26.5; 0.0; 0.00168634064080944
-26; 0.0; 0.00168634064080944
-25.5; 0.0; 0.00168634064080944
-25; 0.0; 0
-24.5; 0.0; 0
-24; 0.0; 0.00168634064080944
-23.5; 0.0; 0.00168634064080944
-23; 0.0; 0.00168634064080944
-22.5; 0.0; 0.00168634064080944
-22; 0.0; 0.00168634064080944
-21.5; 0.0; 0.00168634064080944
-21; 0.0; 0
-20.5; 0.0; 0.00168634064080944
-20; 0.0; 0.00168634064080944
-19.5; 0.0; 0.00168634064080944
-19; 0.0; 0
-18.5; 0.0; 0
-18; 0.0; 0
-17.5; 0.0; 0
-17; 0.0; 0.00168634064080944
-16.5; 0.0; 0.00168634064080944
-16; 0.0; 0.00337268128161889
-15.5; 0.0; 0.00505902192242833
-15; 0.0; 0.00674536256323777
-14.5; 0.0; 0.0118043844856661
-14; 0.0; 0.015177065767285
-13.5; 0.0; 0.0168634064080944
-13; 0.0; 0.0219224283305228
-12.5; 0.0; 0.03035413153457
-12; 0.0; 0.0404721753794266
-11.5; 0.0; 0.0489038785834739
-11; 0.0; 0.0640809443507589
-10.5; 0.0; 0.0843170320404722
-10; 0.0; 0.104553119730186
-9.5; 0.0; 0.129848229342327
-9; 0.0; 0.160202360876897
-8.5; 0.0; 0.195615514333895
-8; 0.0; 0.236087689713322
-7.5; 0.0; 0.281618887015177
-7; 0.0; 0.33220910623946
-6.5; 0.0; 0.387858347386172
-6; 0.0; 0.448566610455312
-5.5; 0.0; 0.507588532883642
-5; 0.0; 0.57504215851602
-4.5; 0.0; 0.639123102866779
-4; 0.0; 0.703204047217538
-3.5; 0.0; 0.763912310286678
-3; 0.0; 0.821247892074199
-2.5; 0.0; 0.873524451939292
-2; 0.0; 0.917369308600337
-1.5; 0.0; 0.949409780775717
-1; 0.0; 0.976391231028668
-0.5; 0.0; 0.994940978077572
0; 0.0; 1
0.5; 0.0; 0.998313659359191
1; 0.0; 0.986509274873524
1.5; 0.0; 0.962900505902192
2; 0.0; 0.930860033726813
2.5; 0.0; 0.890387858347386
3; 0.0; 0.843170320404722
3.5; 0.0; 0.78752107925801
4; 0.0; 0.72681281618887
4.5; 0.0; 0.66610455311973
5; 0.0; 0.602023608768971
5.5; 0.0; 0.536256323777403
6; 0.0; 0.477234401349073
6.5; 0.0; 0.419898819561551
7; 0.0; 0.36256323777403
7.5; 0.0; 0.310286677908938
8; 0.0; 0.263069139966273
8.5; 0.0; 0.220910623946037
9; 0.0; 0.183811129848229
9.5; 0.0; 0.15177065767285
10; 0.0; 0.12141652613828
10.5; 0.0; 0.0961214165261383
11; 0.0; 0.0775716694772344
11.5; 0.0; 0.06070826306914
12; 0.0; 0.0489038785834739
12.5; 0.0; 0.0370994940978078
13; 0.0; 0.0286677908937605
13.5; 0.0; 0.0219224283305228
14; 0.0; 0.0168634064080944
14.5; 0.0; 0.0134907251264755
15; 0.0; 0.00843170320404722
15.5; 0.0; 0.00674536256323777
16; 0.0; 0.00505902192242833
16.5; 0.0; 0.00337268128161889
17; 0.0; 0.00337268128161889
17.5; 0.0; 0.00168634064080944
18; 0.0; 0.00168634064080944
18.5; 0.0; 0.00168634064080944
End:;
Origin of data [Measured/Computed]:; Measured
Machine/Treatment room:; GTR4-PBS
Snout name:; s1
Radiation type:; Proton
Curve type [Depth/X/Y/AbsoluteDosimetry]:; Y
Medium:; Air
Single spot [Yes/No]:; Yes
Isocenter to snout distance [mm]:; 430
Air profile depth [mm]:; 100
Nominal beam energy [MeV]:; 110
Measured fluence curve (X pos [mm] Y pos [mm] Fluence [a.u.]):;
0.0; -27; 0.00337268128161889
0.0; -26.5; 0.00337268128161889
0.0; -26; 0.00337268128161889
0.0; -25.5; 0.00337268128161889
0.0; -25; 0.00337268128161889
0.0; -24.5; 0.00337268128161889
0.0; -24; 0.00337268128161889
0.0; -23.5; 0.00337268128161889
0.0; -23; 0.00505902192242833
0.0; -22.5; 0.00505902192242833
0.0; -22; 0.00505902192242833
0.0; -21.5; 0.00505902192242833
0.0; -21; 0.00505902192242833
0.0; -20.5; 0.00505902192242833
0.0; -20; 0.00674536256323777
0.0; -19.5; 0.00505902192242833
0.0; -19; 0.00674536256323777
0.0; -18.5; 0.0101180438448567
0.0; -18; 0.0118043844856661
0.0; -17.5; 0.0134907251264755
0.0; -17; 0.015177065767285
0.0; -16.5; 0.0185497470489039
0.0; -16; 0.0219224283305228
0.0; -15.5; 0.0269814502529511
0.0; -15; 0.0337268128161889
0.0; -14.5; 0.0421585160202361
0.0; -14; 0.0489038785834739
0.0; -13.5; 0.0623946037099494
0.0; -13; 0.0775716694772344
0.0; -12.5; 0.0961214165261383
0.0; -12; 0.12141652613828
0.0; -11.5; 0.15008431703204
0.0; -11; 0.18212478920742
0.0; -10.5; 0.219224283305228
0.0; -10; 0.263069139966273
0.0; -9.5; 0.311973018549747
0.0; -9; 0.36256323777403
0.0; -8.5; 0.419898819561551
0.0; -8; 0.478920741989882
0.0; -7.5; 0.539629005059022
0.0; -7; 0.602023608768971
0.0; -6.5; 0.66610455311973
0.0; -6; 0.72681281618887
0.0; -5.5; 0.785834738617201
0.0; -5; 0.839797639123103
0.0; -4.5; 0.885328836424958
0.0; -4; 0.925801011804384
0.0; -3.5; 0.956155143338954
0.0; -3; 0.978077571669477
0.0; -2.5; 0.994940978077572
0.0; -2; 1
0.0; -1.5; 1
0.0; -1; 0.988195615514334
0.0; -0.5; 0.964586846543002
0.0; 0; 0.934232715008432
0.0; 0.5; 0.893760539629005
0.0; 1; 0.844856661045531
0.0; 1.5; 0.794266441821248
0.0; 2; 0.740303541315346
0.0; 2.5; 0.681281618887015
0.0; 3; 0.618887015177066
0.0; 3.5; 0.556492411467116
0.0; 4; 0.494097807757167
0.0; 4.5; 0.433389544688027
0.0; 5; 0.377740303541315
0.0; 5.5; 0.322091062394604
0.0; 6; 0.27318718381113
0.0; 6.5; 0.229342327150084
0.0; 7; 0.190556492411467
0.0; 7.5; 0.156829679595278
0.0; 8; 0.128161888701518
0.0; 8.5; 0.102866779089376
0.0; 9; 0.0826306913996627
0.0; 9.5; 0.0657672849915683
0.0; 10; 0.0522765598650927
0.0; 10.5; 0.0421585160202361
0.0; 11; 0.0337268128161889
0.0; 11.5; 0.0269814502529511
0.0; 12; 0.0219224283305228
0.0; 12.5; 0.0185497470489039
0.0; 13; 0.015177065767285
0.0; 13.5; 0.0134907251264755
0.0; 14; 0.0118043844856661
0.0; 14.5; 0.0101180438448567
0.0; 15; 0.00674536256323777
0.0; 15.5; 0.00674536256323777
0.0; 16; 0.00505902192242833
0.0; 16.5; 0.00505902192242833
0.0; 17; 0.00337268128161889
0.0; 17.5; 0.00505902192242833
0.0; 18; 0.00168634064080944
0.0; 18.5; 0.00168634064080944
0.0; 19; 0.00168634064080944
0.0; 19.5; 0
0.0; 20; 0
0.0; 20.5; 0
0.0; 21; 0.00168634064080944
0.0; 21.5; 0
0.0; 22; 0
0.0; 22.5; 0.00168634064080944
End:;
Origin of data [Measured/Computed]:; Measured
Machine/Treatment room:; GTR4-PBS
Snout name:; s1
Radiation type:; Proton
Curve type [Depth/X/Y/AbsoluteDosimetry]:; X
Medium:; Air
Single spot [Yes/No]:; Yes
Isocenter to snout distance [mm]:; 430
Air profile depth [mm]:; 200
Nominal beam energy [MeV]:; 110
Measured fluence curve (X pos [mm] Y pos [mm] Fluence [a.u.]):;
-25.5; 0.0; 0.00145348837209302
-25; 0.0; 0
-24.5; 0.0; 0
-24; 0.0; 0.00145348837209302
-23.5; 0.0; 0.00145348837209302
-23; 0.0; 0.00145348837209302
-22.5; 0.0; 0.00145348837209302
-22; 0.0; 0.00145348837209302
-21.5; 0.0; 0.00145348837209302
-21; 0.0; 0
-20.5; 0.0; 0
-20; 0.0; 0
-19.5; 0.0; 0
-19; 0.0; 0
-18.5; 0.0; 0
-18; 0.0; 0
-17.5; 0.0; 0
-17; 0.0; 0
-16.5; 0.0; 0
-16; 0.0; 0.00145348837209302
-15.5; 0.0; 0.00290697674418605
-15; 0.0; 0.00290697674418605
-14.5; 0.0; 0.00436046511627907
-14; 0.0; 0.00581395348837209
-13.5; 0.0; 0.00726744186046512
-13; 0.0; 0.0116279069767442
-12.5; 0.0; 0.0159883720930233
-12; 0.0; 0.0218023255813953
-11.5; 0.0; 0.0261627906976744
-11; 0.0; 0.0377906976744186
-10.5; 0.0; 0.0508720930232558
-10; 0.0; 0.0654069767441861
-9.5; 0.0; 0.0857558139534884
-9; 0.0; 0.111918604651163
-8.5; 0.0; 0.13953488372093
-8; 0.0; 0.174418604651163
-7.5; 0.0; 0.215116279069767
-7; 0.0; 0.261627906976744
-6.5; 0.0; 0.315406976744186
-6; 0.0; 0.375
-5.5; 0.0; 0.436046511627907
-5; 0.0; 0.504360465116279
-4.5; 0.0; 0.571220930232558
-4; 0.0; 0.640988372093023
-3.5; 0.0; 0.709302325581395
-3; 0.0; 0.774709302325581
-2.5; 0.0; 0.837209302325581
-2; 0.0; 0.892441860465116
-1.5; 0.0; 0.936046511627907
-1; 0.0; 0.969476744186046
-0.5; 0.0; 0.991279069767442
0; 0.0; 1
0.5; 0.0; 0.995639534883721
1; 0.0; 0.978197674418605
1.5; 0.0; 0.949127906976744
2; 0.0; 0.906976744186046
2.5; 0.0; 0.856104651162791
3; 0.0; 0.796511627906977
3.5; 0.0; 0.734011627906977
4; 0.0; 0.664244186046512
4.5; 0.0; 0.593023255813954
5; 0.0; 0.521802325581395
5.5; 0.0; 0.453488372093023
6; 0.0; 0.388081395348837
6.5; 0.0; 0.32703488372093
7; 0.0; 0.271802325581395
7.5; 0.0; 0.223837209302326
8; 0.0; 0.181686046511628
8.5; 0.0; 0.146802325581395
9; 0.0; 0.116279069767442
9.5; 0.0; 0.0930232558139535
10; 0.0; 0.0697674418604651
10.5; 0.0; 0.0537790697674419
11; 0.0; 0.0392441860465116
11.5; 0.0; 0.0290697674418605
12; 0.0; 0.0218023255813953
12.5; 0.0; 0.0159883720930233
13; 0.0; 0.0116279069767442
13.5; 0.0; 0.00726744186046512
14; 0.0; 0.00436046511627907
14.5; 0.0; 0.00436046511627907
15; 0.0; 0.00290697674418605
15.5; 0.0; 0.00290697674418605
16; 0.0; 0.00290697674418605
16.5; 0.0; 0.00145348837209302
17; 0.0; 0.00145348837209302
17.5; 0.0; 0.00145348837209302
18; 0.0; 0
18.5; 0.0; 0
19; 0.0; 0
19.5; 0.0; 0
20; 0.0; 0
20.5; 0.0; 0
21; 0.0; 0.00145348837209302
21.5; 0.0; 0.00145348837209302
22; 0.0; 0.00145348837209302
End:;
Origin of data [Measured/Computed]:; Measured
Machine/Treatment room:; GTR4-PBS
Snout name:; s1
Radiation type:; Proton
Curve type [Depth/X/Y/AbsoluteDosimetry]:; Y
Medium:; Air
Single spot [Yes/No]:; Yes
Isocenter to snout distance [mm]:; 430
Air profile depth [mm]:; 200
Nominal beam energy [MeV]:; 110
Measured fluence curve (X pos [mm] Y pos [mm] Fluence [a.u.]):;
0.0; -27; 0.00290697674418605
0.0; -26.5; 0.00290697674418605
0.0; -26; 0.00290697674418605
0.0; -25.5; 0.00290697674418605
0.0; -25; 0.00290697674418605
0.0; -24.5; 0.00290697674418605
0.0; -24; 0.00290697674418605
0.0; -23.5; 0.00290697674418605
0.0; -23; 0.00581395348837209
0.0; -22.5; 0.00436046511627907
0.0; -22; 0.00436046511627907
0.0; -21.5; 0.00436046511627907
0.0; -21; 0.00436046511627907
0.0; -20.5; 0.00436046511627907
0.0; -20; 0.00436046511627907
0.0; -19.5; 0.00436046511627907
0.0; -19; 0.00436046511627907
0.0; -18.5; 0.00581395348837209
0.0; -18; 0.00872093023255814
0.0; -17.5; 0.00872093023255814
0.0; -17; 0.0116279069767442
0.0; -16.5; 0.0130813953488372
0.0; -16; 0.0145348837209302
0.0; -15.5; 0.0159883720930233
0.0; -15; 0.0232558139534884
0.0; -14.5; 0.0276162790697674
0.0; -14; 0.0319767441860465
0.0; -13.5; 0.0421511627906977
0.0; -13; 0.0537790697674419
0.0; -12.5; 0.0668604651162791
0.0; -12; 0.0857558139534884
0.0; -11.5; 0.109011627906977
0.0; -11; 0.136627906976744
0.0; -10.5; 0.171511627906977
0.0; -10; 0.210755813953488
0.0; -9.5; 0.255813953488372
0.0; -9; 0.306686046511628
0.0; -8.5; 0.366279069767442
0.0; -8; 0.428779069767442
0.0; -7.5; 0.492732558139535
0.0; -7; 0.558139534883721
0.0; -6.5; 0.626453488372093
0.0; -6; 0.691860465116279
0.0; -5.5; 0.755813953488372
0.0; -5; 0.816860465116279
0.0; -4.5; 0.872093023255814
0.0; -4; 0.917151162790698
0.0; -3.5; 0.95203488372093
0.0; -3; 0.978197674418605
0.0; -2.5; 0.991279069767442
0.0; -2; 1
0.0; -1.5; 0.995639534883721
0.0; -1; 0.982558139534884
0.0; -0.5; 0.956395348837209
0.0; 0; 0.92296511627907
0.0; 0.5; 0.876453488372093
0.0; 1; 0.821220930232558
0.0; 1.5; 0.761627906976744
0.0; 2; 0.70203488372093
0.0; 2.5; 0.638081395348837
0.0; 3; 0.568313953488372
0.0; 3.5; 0.502906976744186
0.0; 4; 0.4375
0.0; 4.5; 0.373546511627907
0.0; 5; 0.316860465116279
0.0; 5.5; 0.263081395348837
0.0; 6; 0.21656976744186
0.0; 6.5; 0.175872093023256
0.0; 7; 0.142441860465116
0.0; 7.5; 0.114825581395349
0.0; 8; 0.0901162790697674
0.0; 8.5; 0.0697674418604651
0.0; 9; 0.0552325581395349
0.0; 9.5; 0.0436046511627907
0.0; 10; 0.0348837209302326
0.0; 10.5; 0.0276162790697674
0.0; 11; 0.0218023255813953
0.0; 11.5; 0.0159883720930233
0.0; 12; 0.0130813953488372
0.0; 12.5; 0.0116279069767442
0.0; 13; 0.0101744186046512
0.0; 13.5; 0.00872093023255814
0.0; 14; 0.00581395348837209
0.0; 14.5; 0.00581395348837209
0.0; 15; 0.00436046511627907
0.0; 15.5; 0.00436046511627907
0.0; 16; 0.00290697674418605
0.0; 16.5; 0.00290697674418605
0.0; 17; 0.00145348837209302
0.0; 17.5; 0.00290697674418605
0.0; 18; 0.00145348837209302
0.0; 18.5; 0.00145348837209302
0.0; 19; 0.00145348837209302
0.0; 19.5; 0.00145348837209302
0.0; 20; 0.00145348837209302
0.0; 20.5; 0.00145348837209302
0.0; 21; 0.00145348837209302
0.0; 21.5; 0.00145348837209302
End:;
Origin of data [Measured/Computed]:; Measured
Machine/Treatment room:; GTR4-PBS
Snout name:; s1
Radiation type:; Proton
Curve type [Depth/X/Y/AbsoluteDosimetry]:; X
Medium:; Air
Single spot [Yes/No]:; Yes
Isocenter to snout distance [mm]:; 430
Air profile depth [mm]:; -100
Nominal beam energy [MeV]:; 110
Measured fluence curve (X pos [mm] Y pos [mm] Fluence [a.u.]):;
-25.5; 0.0; 0.00161290322580645
-25; 0.0; 0
-24.5; 0.0; 0
-24; 0.0; 0.00161290322580645
-23.5; 0.0; 0.00161290322580645
-23; 0.0; 0.00161290322580645
-22.5; 0.0; 0.00161290322580645
-22; 0.0; 0.00161290322580645
-21.5; 0.0; 0.00161290322580645
-21; 0.0; 0
-20.5; 0.0; 0.00161290322580645
-20; 0.0; 0.00161290322580645
-19.5; 0.0; 0.00161290322580645
-19; 0.0; 0.00161290322580645
-18.5; 0.0; 0.0032258064516129
-18; 0.0; 0.0032258064516129
-17.5; 0.0; 0.00483870967741936
-17; 0.0; 0.0112903225806452
-16.5; 0.0; 0.0145161290322581
-16; 0.0; 0.017741935483871
-15.5; 0.0; 0.0258064516129032
-15; 0.0; 0.0306451612903226
-14.5; 0.0; 0.0387096774193548
-14; 0.0; 0.0483870967741935
-13.5; 0.0; 0.0596774193548387
-13; 0.0; 0.0725806451612903
-12.5; 0.0; 0.0887096774193548
-12; 0.0; 0.109677419354839
-11.5; 0.0; 0.129032258064516
-11; 0.0; 0.156451612903226
-10.5; 0.0; 0.188709677419355
-10; 0.0; 0.220967741935484
-9.5; 0.0; 0.256451612903226
-9; 0.0; 0.296774193548387
-8.5; 0.0; 0.340322580645161
-8; 0.0; 0.385483870967742
-7.5; 0.0; 0.435483870967742
-7; 0.0; 0.487096774193548
-6.5; 0.0; 0.543548387096774
-6; 0.0; 0.596774193548387
-5.5; 0.0; 0.648387096774194
-5; 0.0; 0.703225806451613
-4.5; 0.0; 0.753225806451613
-4; 0.0; 0.798387096774194
-3.5; 0.0; 0.841935483870968
-3; 0.0; 0.882258064516129
-2.5; 0.0; 0.917741935483871
-2; 0.0; 0.948387096774194
-1.5; 0.0; 0.969354838709677
-1; 0.0; 0.985483870967742
-0.5; 0.0; 0.998387096774194
0; 0.0; 1
0.5; 0.0; 0.998387096774194
1; 0.0; 0.985483870967742
1.5; 0.0; 0.964516129032258
2; 0.0; 0.941935483870968
2.5; 0.0; 0.908064516129032
3; 0.0; 0.87258064516129
3.5; 0.0; 0.832258064516129
4; 0.0; 0.787096774193548
4.5; 0.0; 0.738709677419355
5; 0.0; 0.690322580645161
5.5; 0.0; 0.638709677419355
6; 0.0; 0.585483870967742
6.5; 0.0; 0.535483870967742
7; 0.0; 0.485483870967742
7.5; 0.0; 0.438709677419355
8; 0.0; 0.391935483870968
8.5; 0.0; 0.351612903225806
9; 0.0; 0.311290322580645
9.5; 0.0; 0.274193548387097
10; 0.0; 0.237096774193548
10.5; 0.0; 0.204838709677419
11; 0.0; 0.174193548387097
11.5; 0.0; 0.146774193548387
12; 0.0; 0.124193548387097
12.5; 0.0; 0.104838709677419
13; 0.0; 0.0854838709677419
13.5; 0.0; 0.0709677419354839
14; 0.0; 0.0580645161290323
14.5; 0.0; 0.0467741935483871
15; 0.0; 0.0370967741935484
15.5; 0.0; 0.0306451612903226
16; 0.0; 0.0225806451612903
16.5; 0.0; 0.017741935483871
17; 0.0; 0.0145161290322581
17.5; 0.0; 0.00967741935483871
18; 0.0; 0.00806451612903226
18.5; 0.0; 0.00645161290322581
19; 0.0; 0.00483870967741936
19.5; 0.0; 0.0032258064516129
20; 0.0; 0.00161290322580645
20.5; 0.0; 0.00161290322580645
21; 0.0; 0.00161290322580645
21.5; 0.0; 0.00161290322580645
22; 0.0; 0.00161290322580645
22.5; 0.0; 0.00161290322580645
End:;
Origin of data [Measured/Computed]:; Measured
Machine/Treatment room:; GTR4-PBS
Snout name:; s1
Radiation type:; Proton
Curve type [Depth/X/Y/AbsoluteDosimetry]:; Y
Medium:; Air
Single spot [Yes/No]:; Yes
Isocenter to snout distance [mm]:; 430
Air profile depth [mm]:; -100
Nominal beam energy [MeV]:; 110
Measured fluence curve (X pos [mm] Y pos [mm] Fluence [a.u.]):;
0.0; -27; 0.0032258064516129
0.0; -26.5; 0.0032258064516129
0.0; -26; 0.0032258064516129
0.0; -25.5; 0.0032258064516129
0.0; -25; 0.0032258064516129
0.0; -24.5; 0.0032258064516129
0.0; -24; 0.0032258064516129
0.0; -23.5; 0.0032258064516129
0.0; -23; 0.00645161290322581
0.0; -22.5; 0.00645161290322581
0.0; -22; 0.00645161290322581
0.0; -21.5; 0.00806451612903226
0.0; -21; 0.00806451612903226
0.0; -20.5; 0.0112903225806452
0.0; -20; 0.0129032258064516
0.0; -19.5; 0.0145161290322581
0.0; -19; 0.0161290322580645
0.0; -18.5; 0.0193548387096774
0.0; -18; 0.0241935483870968
0.0; -17.5; 0.0290322580645161
0.0; -17; 0.0338709677419355
0.0; -16.5; 0.0419354838709677
0.0; -16; 0.05
0.0; -15.5; 0.0612903225806452
0.0; -15; 0.0758064516129032
0.0; -14.5; 0.0919354838709677
0.0; -14; 0.108064516129032
0.0; -13.5; 0.129032258064516
0.0; -13; 0.151612903225806
0.0; -12.5; 0.179032258064516
0.0; -12; 0.208064516129032
0.0; -11.5; 0.246774193548387
0.0; -11; 0.285483870967742
0.0; -10.5; 0.32741935483871
0.0; -10; 0.37258064516129
0.0; -9.5; 0.42258064516129
0.0; -9; 0.474193548387097
0.0; -8.5; 0.524193548387097
0.0; -8; 0.57741935483871
0.0; -7.5; 0.633870967741936
0.0; -7; 0.687096774193548
0.0; -6.5; 0.738709677419355
0.0; -6; 0.787096774193548
0.0; -5.5; 0.832258064516129
0.0; -5; 0.87258064516129
0.0; -4.5; 0.911290322580645
0.0; -4; 0.943548387096774
0.0; -3.5; 0.970967741935484
0.0; -3; 0.988709677419355
0.0; -2.5; 0.998387096774194
0.0; -2; 1
0.0; -1.5; 0.995161290322581
0.0; -1; 0.983870967741936
0.0; -0.5; 0.964516129032258
0.0; 0; 0.940322580645161
0.0; 0.5; 0.908064516129032
0.0; 1; 0.870967741935484
0.0; 1.5; 0.825806451612903
0.0; 2; 0.780645161290323
0.0; 2.5; 0.730645161290323
0.0; 3; 0.67741935483871
0.0; 3.5; 0.624193548387097
0.0; 4; 0.570967741935484
0.0; 4.5; 0.514516129032258
0.0; 5; 0.462903225806452
0.0; 5.5; 0.411290322580645
0.0; 6; 0.362903225806452
0.0; 6.5; 0.317741935483871
0.0; 7; 0.275806451612903
0.0; 7.5; 0.237096774193548
0.0; 8; 0.203225806451613
0.0; 8.5; 0.174193548387097
0.0; 9; 0.146774193548387
0.0; 9.5; 0.125806451612903
0.0; 10; 0.103225806451613
0.0; 10.5; 0.0870967741935484
0.0; 11; 0.0709677419354839
0.0; 11.5; 0.0580645161290323
0.0; 12; 0.0467741935483871
0.0; 12.5; 0.0403225806451613
0.0; 13; 0.032258064516129
0.0; 13.5; 0.0274193548387097
0.0; 14; 0.0241935483870968
0.0; 14.5; 0.0193548387096774
0.0; 15; 0.0161290322580645
0.0; 15.5; 0.0129032258064516
0.0; 16; 0.0112903225806452
0.0; 16.5; 0.00967741935483871
0.0; 17; 0.00645161290322581
0.0; 17.5; 0.00645161290322581
0.0; 18; 0.00483870967741936
0.0; 18.5; 0.0032258064516129
0.0; 19; 0.0032258064516129
0.0; 19.5; 0.00161290322580645
0.0; 20; 0.00161290322580645
0.0; 20.5; 0.00161290322580645
0.0; 21; 0.00161290322580645
0.0; 21.5; 0.00161290322580645
0.0; 22; 0.00161290322580645
End:;
Origin of data [Measured/Computed]:; Measured
Machine/Treatment room:; GTR4-PBS
Snout name:; s1
Radiation type:; Proton
Curve type [Depth/X/Y/AbsoluteDosimetry]:; X
Medium:; Air
Single spot [Yes/No]:; Yes
Isocenter to snout distance [mm]:; 430
Air profile depth [mm]:; -200
Nominal beam energy [MeV]:; 110
Measured fluence curve (X pos [mm] Y pos [mm] Fluence [a.u.]):;
-21.5; 0.0; 0.00142045454545455
-21; 0.0; 0.00284090909090909
-20.5; 0.0; 0.00426136363636364
-20; 0.0; 0.00568181818181818
-19.5; 0.0; 0.00568181818181818
-19; 0.0; 0.00710227272727273
-18.5; 0.0; 0.00994318181818182
-18; 0.0; 0.0113636363636364
-17.5; 0.0; 0.0142045454545455
-17; 0.0; 0.0184659090909091
-16.5; 0.0; 0.0227272727272727
-16; 0.0; 0.0284090909090909
-15.5; 0.0; 0.0369318181818182
-15; 0.0; 0.046875
-14.5; 0.0; 0.0582386363636364
-14; 0.0; 0.0724431818181818
-13.5; 0.0; 0.0880681818181818
-13; 0.0; 0.106534090909091
-12.5; 0.0; 0.127840909090909
-12; 0.0; 0.150568181818182
-11.5; 0.0; 0.176136363636364
-11; 0.0; 0.204545454545455
-10.5; 0.0; 0.238636363636364
-10; 0.0; 0.272727272727273
-9.5; 0.0; 0.3125
-9; 0.0; 0.353693181818182
-8.5; 0.0; 0.397727272727273
-8; 0.0; 0.443181818181818
-7.5; 0.0; 0.491477272727273
-7; 0.0; 0.539772727272727
-6.5; 0.0; 0.590909090909091
-6; 0.0; 0.642045454545455
-5.5; 0.0; 0.690340909090909
-5; 0.0; 0.740056818181818
-4.5; 0.0; 0.785511363636364
-4; 0.0; 0.826704545454545
-3.5; 0.0; 0.867897727272727
-3; 0.0; 0.900568181818182
-2.5; 0.0; 0.928977272727273
-2; 0.0; 0.953125
-1.5; 0.0; 0.974431818181818
-1; 0.0; 0.988636363636364
-0.5; 0.0; 0.998579545454545
0; 0.0; 1
0.5; 0.0; 1
1; 0.0; 0.990056818181818
1.5; 0.0; 0.975852272727273
2; 0.0; 0.955965909090909
2.5; 0.0; 0.931818181818182
3; 0.0; 0.901988636363636
3.5; 0.0; 0.867897727272727
4; 0.0; 0.828125
4.5; 0.0; 0.786931818181818
5; 0.0; 0.741477272727273
5.5; 0.0; 0.696022727272727
6; 0.0; 0.649147727272727
6.5; 0.0; 0.603693181818182
7; 0.0; 0.558238636363636
7.5; 0.0; 0.512784090909091
8; 0.0; 0.46875
8.5; 0.0; 0.424715909090909
9; 0.0; 0.383522727272727
9.5; 0.0; 0.34375
10; 0.0; 0.308238636363636
10.5; 0.0; 0.272727272727273
11; 0.0; 0.241477272727273
11.5; 0.0; 0.208806818181818
12; 0.0; 0.180397727272727
12.5; 0.0; 0.154829545454545
13; 0.0; 0.132102272727273
13.5; 0.0; 0.112215909090909
14; 0.0; 0.0951704545454545
14.5; 0.0; 0.0795454545454545
15; 0.0; 0.0681818181818182
15.5; 0.0; 0.0553977272727273
16; 0.0; 0.0454545454545455
16.5; 0.0; 0.0383522727272727
17; 0.0; 0.03125
17.5; 0.0; 0.0255681818181818
18; 0.0; 0.0184659090909091
18.5; 0.0; 0.0142045454545455
19; 0.0; 0.0113636363636364
19.5; 0.0; 0.00852272727272727
20; 0.0; 0.00710227272727273
20.5; 0.0; 0.00426136363636364
21; 0.0; 0.00284090909090909
21.5; 0.0; 0.00142045454545455
22; 0.0; 0
22.5; 0.0; 0.00142045454545455
End:;
Origin of data [Measured/Computed]:; Measured
Machine/Treatment room:; GTR4-PBS
Snout name:; s1
Radiation type:; Proton
Curve type [Depth/X/Y/AbsoluteDosimetry]:; Y
Medium:; Air
Single spot [Yes/No]:; Yes
Isocenter to snout distance [mm]:; 430
Air profile depth [mm]:; -200
Nominal beam energy [MeV]:; 110
Measured fluence curve (X pos [mm] Y pos [mm] Fluence [a.u.]):;
0.0; -25.5; 0.00284090909090909
0.0; -25; 0.00284090909090909
0.0; -24.5; 0.00284090909090909
0.0; -24; 0.00284090909090909
0.0; -23.5; 0.00426136363636364
0.0; -23; 0.00568181818181818
0.0; -22.5; 0.00568181818181818
0.0; -22; 0.00568181818181818
0.0; -21.5; 0.00710227272727273
0.0; -21; 0.00710227272727273
0.0; -20.5; 0.00994318181818182
0.0; -20; 0.0113636363636364
0.0; -19.5; 0.0127840909090909
0.0; -19; 0.015625
0.0; -18.5; 0.0170454545454545
0.0; -18; 0.0198863636363636
0.0; -17.5; 0.0255681818181818
0.0; -17; 0.0284090909090909
0.0; -16.5; 0.0355113636363636
0.0; -16; 0.0411931818181818
0.0; -15.5; 0.0497159090909091
0.0; -15; 0.0625
0.0; -14.5; 0.0752840909090909
0.0; -14; 0.0894886363636364
0.0; -13.5; 0.106534090909091
0.0; -13; 0.126420454545455
0.0; -12.5; 0.149147727272727
0.0; -12; 0.170454545454545
0.0; -11.5; 0.197443181818182
0.0; -11; 0.228693181818182
0.0; -10.5; 0.261363636363636
0.0; -10; 0.298295454545455
0.0; -9.5; 0.338068181818182
0.0; -9; 0.380681818181818
0.0; -8.5; 0.424715909090909
0.0; -8; 0.473011363636364
0.0; -7.5; 0.518465909090909
0.0; -7; 0.569602272727273
0.0; -6.5; 0.619318181818182
0.0; -6; 0.669034090909091
0.0; -5.5; 0.717329545454545
0.0; -5; 0.764204545454545
0.0; -4.5; 0.809659090909091
0.0; -4; 0.850852272727273
0.0; -3.5; 0.887784090909091
0.0; -3; 0.920454545454545
0.0; -2.5; 0.947443181818182
0.0; -2; 0.971590909090909
0.0; -1.5; 0.988636363636364
0.0; -1; 0.997159090909091
0.0; -0.5; 1
0.0; 0; 0.995738636363636
0.0; 0.5; 0.984375
0.0; 1; 0.96875
0.0; 1.5; 0.947443181818182
0.0; 2; 0.917613636363636
0.0; 2.5; 0.884943181818182
0.0; 3; 0.850852272727273
0.0; 3.5; 0.8125
0.0; 4; 0.769886363636364
0.0; 4.5; 0.725852272727273
0.0; 5; 0.677556818181818
0.0; 5.5; 0.629261363636364
0.0; 6; 0.578125
0.0; 6.5; 0.525568181818182
0.0; 7; 0.475852272727273
0.0; 7.5; 0.428977272727273
0.0; 8; 0.382102272727273
0.0; 8.5; 0.340909090909091
0.0; 9; 0.299715909090909
0.0; 9.5; 0.265625
0.0; 10; 0.230113636363636
0.0; 10.5; 0.198863636363636
0.0; 11; 0.171875
0.0; 11.5; 0.147727272727273
0.0; 12; 0.127840909090909
0.0; 12.5; 0.107954545454545
0.0; 13; 0.0909090909090909
0.0; 13.5; 0.0752840909090909
0.0; 14; 0.0625
0.0; 14.5; 0.0511363636363636
0.0; 15; 0.0426136363636364
0.0; 15.5; 0.0369318181818182
0.0; 16; 0.0298295454545455
0.0; 16.5; 0.0255681818181818
0.0; 17; 0.0227272727272727
0.0; 17.5; 0.0170454545454545
0.0; 18; 0.0142045454545455
0.0; 18.5; 0.0127840909090909
0.0; 19; 0.0113636363636364
0.0; 19.5; 0.00994318181818182
0.0; 20; 0.00710227272727273
0.0; 20.5; 0.00568181818181818
0.0; 21; 0.00284090909090909
0.0; 21.5; 0.00142045454545455
0.0; 22; 0.00142045454545455
0.0; 22.5; 0.00142045454545455
0.0; 23; 0.00142045454545455
End:;
