﻿Insert name,Measured HU
LN300 Lung,-731.8
LN450 Lung,-571.3
AP6 Adipose,-93
Breast,-52
Solid Water,17.6
Muscle,-2
Brain,13
Liver,66.4
B200 Bone Mineral,209.9
IB3 Inner Bone,217.9
CB2 - 30% CaCO3 Bone,586.8
CB2 - 50% CaCO3 Bone,1053.9
SB3 Cortical Bone,1583.5
