﻿Insert name,Measured HU
Lung inhale,-798
Lung exhale,-484
Adipose,-63
BreastTissue,-41
Liquid Water,0
Solid Water,3
Muscle,40
Liver,56
Ref. Bone 200 mg/cc HA,185
Ref. Bone 800 mg/cc HA,869
Ref. Bone 1000 mg/cc HA,1118
Ref. Bone 1250 mg/cc HA,1383
Ref. Bone 1500 mg/cc HA,1651
Ref. Bone 1750 mg/cc HA,1908
